%!PS-Adobe-3.0 EPSF-3.0
%%Title: gl2ps_renderer figure
%%Creator: GL2PS 1.4.0, (C) 1999-2017 C. Geuzaine
%%For: Octave
%%CreationDate: Mon Feb  3 11:35:08 2020
%%LanguageLevel: 3
%%DocumentData: Clean7Bit
%%Pages: 1
%%BoundingBox: 0 0 360 252
%%EndComments
%%BeginProlog
/gl2psdict 64 dict def gl2psdict begin
/tryPS3shading false def % set to false to force subdivision
/rThreshold 0.064 def % red component subdivision threshold
/gThreshold 0.034 def % green component subdivision threshold
/bThreshold 0.1 def % blue component subdivision threshold
/BD { bind def } bind def
/C  { setrgbcolor } BD
/G  { 0.082 mul exch 0.6094 mul add exch 0.3086 mul add neg 1.0 add setgray } BD
/W  { setlinewidth } BD
/LC  { setlinecap } BD
/LJ  { setlinejoin } BD
/FC { findfont exch /SH exch def SH scalefont setfont } BD
/SW { dup stringwidth pop } BD
/S  { FC moveto show } BD
/SBC{ FC moveto SW -2 div 0 rmoveto show } BD
/SBR{ FC moveto SW neg 0 rmoveto show } BD
/SCL{ FC moveto 0 SH -2 div rmoveto show } BD
/SCC{ FC moveto SW -2 div SH -2 div rmoveto show } BD
/SCR{ FC moveto SW neg SH -2 div rmoveto show } BD
/STL{ FC moveto 0 SH neg rmoveto show } BD
/STC{ FC moveto SW -2 div SH neg rmoveto show } BD
/STR{ FC moveto SW neg SH neg rmoveto show } BD
/FCT { FC translate 0 0 } BD
/SR  { gsave FCT moveto rotate show grestore } BD
/SRX  { gsave FCT moveto rotate xshow grestore } BD
/SBCR{ gsave FCT moveto rotate SW -2 div 0 rmoveto show grestore } BD
/SBRR{ gsave FCT moveto rotate SW neg 0 rmoveto show grestore } BD
/SCLR{ gsave FCT moveto rotate 0 SH -2 div rmoveto show grestore} BD
/SCCR{ gsave FCT moveto rotate SW -2 div SH -2 div rmoveto show grestore} BD
/SCRR{ gsave FCT moveto rotate SW neg SH -2 div rmoveto show grestore} BD
/STLR{ gsave FCT moveto rotate 0 SH neg rmoveto show grestore } BD
/STCR{ gsave FCT moveto rotate SW -2 div SH neg rmoveto show grestore } BD
/STRR{ gsave FCT moveto rotate SW neg SH neg rmoveto show grestore } BD
/P  { newpath 0.0 360.0 arc closepath fill } BD
/LS { newpath moveto } BD
/L  { lineto } BD
/LE { lineto stroke } BD
/T  { newpath moveto lineto lineto closepath fill } BD
/STshfill {
      /b1 exch def /g1 exch def /r1 exch def /y1 exch def /x1 exch def
      /b2 exch def /g2 exch def /r2 exch def /y2 exch def /x2 exch def
      /b3 exch def /g3 exch def /r3 exch def /y3 exch def /x3 exch def
      gsave << /ShadingType 4 /ColorSpace [/DeviceRGB]
      /DataSource [ 0 x1 y1 r1 g1 b1 0 x2 y2 r2 g2 b2 0 x3 y3 r3 g3 b3 ] >>
      shfill grestore } BD
/Tm { 3 -1 roll 8 -1 roll 13 -1 roll add add 3 div
      3 -1 roll 7 -1 roll 11 -1 roll add add 3 div
      3 -1 roll 6 -1 roll 9 -1 roll add add 3 div C T } BD
/STsplit {
      4 index 15 index add 0.5 mul
      4 index 15 index add 0.5 mul
      4 index 15 index add 0.5 mul
      4 index 15 index add 0.5 mul
      4 index 15 index add 0.5 mul
      5 copy 5 copy 25 15 roll
      9 index 30 index add 0.5 mul
      9 index 30 index add 0.5 mul
      9 index 30 index add 0.5 mul
      9 index 30 index add 0.5 mul
      9 index 30 index add 0.5 mul
      5 copy 5 copy 35 5 roll 25 5 roll 15 5 roll
      4 index 10 index add 0.5 mul
      4 index 10 index add 0.5 mul
      4 index 10 index add 0.5 mul
      4 index 10 index add 0.5 mul
      4 index 10 index add 0.5 mul
      5 copy 5 copy 40 5 roll 25 5 roll 15 5 roll 25 5 roll
      STnoshfill STnoshfill STnoshfill STnoshfill } BD
/STnoshfill {
      2 index 8 index sub abs rThreshold gt
      { STsplit }
      { 1 index 7 index sub abs gThreshold gt
        { STsplit }
        { dup 6 index sub abs bThreshold gt
          { STsplit }
          { 2 index 13 index sub abs rThreshold gt
            { STsplit }
            { 1 index 12 index sub abs gThreshold gt
              { STsplit }
              { dup 11 index sub abs bThreshold gt
                { STsplit }
                { 7 index 13 index sub abs rThreshold gt
                  { STsplit }
                  { 6 index 12 index sub abs gThreshold gt
                    { STsplit }
                    { 5 index 11 index sub abs bThreshold gt
                      { STsplit }
                      { Tm }
                      ifelse }
                    ifelse }
                  ifelse }
                ifelse }
              ifelse }
            ifelse }
          ifelse }
        ifelse }
      ifelse } BD
tryPS3shading
{ /shfill where
  { /ST { STshfill } BD }
  { /ST { STnoshfill } BD }
  ifelse }
{ /ST { STnoshfill } BD }
ifelse
end
%%EndProlog
%%BeginSetup
/DeviceRGB setcolorspace
gl2psdict begin
%%EndSetup
%%Page: 1 1
%%BeginPageSetup
%%EndPageSetup
mark
gsave
1.0 1.0 scale
1 1 1 C
newpath 0 0 moveto 360 0 lineto 360 252 lineto 0 252 lineto
closepath fill
gsave
1.0 1.0 scale
1 1 1 C
newpath 0 0 moveto 360 0 lineto 360 252 lineto 0 252 lineto
closepath fill
newpath 0 0 moveto 360 0 lineto 360 252 lineto 0 252 lineto
closepath clip
1 1 1 C
46.8 233.1 325.8 27.72 46.8 27.72 T
46.8 233.1 325.8 233.1 325.8 27.72 T
0.5 W
0.15 0.15 0.15 C
46.8 27.72 LS
46.8 30.5152 LE
46.8 233.1 LS
46.8 230.305 LE
116.55 27.72 LS
116.55 30.5152 LE
116.55 233.1 LS
116.55 230.305 LE
186.3 27.72 LS
186.3 30.5152 LE
186.3 233.1 LS
186.3 230.305 LE
256.05 27.72 LS
256.05 30.5152 LE
256.05 233.1 LS
256.05 230.305 LE
325.8 27.72 LS
325.8 30.5152 LE
325.8 233.1 LS
325.8 230.305 LE
gsave
0.14902 0.14902 0.14902 C
(0) [10] 0 43.8 12.2061 10 /Helvetica SRX
grestore

gsave
0.14902 0.14902 0.14902 C
(2) [10] 0 113.55 12.2061 10 /Helvetica SRX
grestore

gsave
0.14902 0.14902 0.14902 C
(4) [10] 0 183.3 12.2061 10 /Helvetica SRX
grestore

gsave
0.14902 0.14902 0.14902 C
(6) [10] 0 253.05 12.2061 10 /Helvetica SRX
grestore

gsave
0.14902 0.14902 0.14902 C
(8) [10] 0 322.8 12.2061 10 /Helvetica SRX
grestore

46.8 27.72 LS
49.59 27.72 LE
325.8 27.72 LS
323.01 27.72 LE
46.8 57.06 LS
49.59 57.06 LE
325.8 57.06 LS
323.01 57.06 LE
46.8 86.4 LS
49.59 86.4 LE
325.8 86.4 LS
323.01 86.4 LE
46.8 115.74 LS
49.59 115.74 LE
325.8 115.74 LS
323.01 115.74 LE
46.8 145.08 LS
49.59 145.08 LE
325.8 145.08 LS
323.01 145.08 LE
46.8 174.42 LS
49.59 174.42 LE
325.8 174.42 LS
323.01 174.42 LE
46.8 203.76 LS
49.59 203.76 LE
325.8 203.76 LS
323.01 203.76 LE
46.8 233.1 LS
49.59 233.1 LE
325.8 233.1 LS
323.01 233.1 LE
gsave
0.14902 0.14902 0.14902 C
(0) [10] 0 35.8 23.72 10 /Helvetica SRX
grestore

gsave
0.14902 0.14902 0.14902 C
(1) [10] 0 35.8 53.06 10 /Helvetica SRX
grestore

gsave
0.14902 0.14902 0.14902 C
(2) [10] 0 35.8 82.4 10 /Helvetica SRX
grestore

gsave
0.14902 0.14902 0.14902 C
(3) [10] 0 35.8 111.74 10 /Helvetica SRX
grestore

gsave
0.14902 0.14902 0.14902 C
(4) [10] 0 35.8 141.08 10 /Helvetica SRX
grestore

gsave
0.14902 0.14902 0.14902 C
(5) [10] 0 35.8 170.42 10 /Helvetica SRX
grestore

gsave
0.14902 0.14902 0.14902 C
(6) [10] 0 35.8 199.76 10 /Helvetica SRX
grestore

gsave
0.14902 0.14902 0.14902 C
(7) [10] 0 35.8 229.1 10 /Helvetica SRX
grestore

2 LC
[16 0] 0 setdash
46.8 27.72 LS
325.8 27.72 LE
46.8 233.1 LS
325.8 233.1 LE
46.8 27.72 LS
46.8 233.1 LE
325.8 27.72 LS
325.8 233.1 LE
0 LC
1 LJ
[] 0 setdash
0 0.447 0.741 C
186.3 27.72 LS
46.8 174.42 LE
116.55 233.1 LS
46.8 174.42 L
186.3 27.72 LE
325.8 174.42 LS
186.3 27.72 L
325.8 174.42 LE
256.05 233.1 LS
325.8 174.42 L
256.05 233.1 LE
186.3 174.42 LS
256.05 233.1 L
186.3 174.42 LE
116.55 233.1 LS
186.3 174.42 LE
46.8 174.42 LS
116.55 233.1 LE
186.3 174.42 LS
116.55 233.1 LE
grestore
grestore
showpage
cleartomark
%%PageTrailer
%%Trailer
end
%%EOF
