%!PS-Adobe-3.0 EPSF-3.0
%%Title: gl2ps_renderer figure
%%Creator: GL2PS 1.4.0, (C) 1999-2017 C. Geuzaine
%%For: Octave
%%CreationDate: Mon Feb  3 11:35:10 2020
%%LanguageLevel: 3
%%DocumentData: Clean7Bit
%%Pages: 1
%%BoundingBox: 0 0 360 252
%%EndComments
%%BeginProlog
/gl2psdict 64 dict def gl2psdict begin
/tryPS3shading false def % set to false to force subdivision
/rThreshold 0.064 def % red component subdivision threshold
/gThreshold 0.034 def % green component subdivision threshold
/bThreshold 0.1 def % blue component subdivision threshold
/BD { bind def } bind def
/C  { setrgbcolor } BD
/G  { 0.082 mul exch 0.6094 mul add exch 0.3086 mul add neg 1.0 add setgray } BD
/W  { setlinewidth } BD
/LC  { setlinecap } BD
/LJ  { setlinejoin } BD
/FC { findfont exch /SH exch def SH scalefont setfont } BD
/SW { dup stringwidth pop } BD
/S  { FC moveto show } BD
/SBC{ FC moveto SW -2 div 0 rmoveto show } BD
/SBR{ FC moveto SW neg 0 rmoveto show } BD
/SCL{ FC moveto 0 SH -2 div rmoveto show } BD
/SCC{ FC moveto SW -2 div SH -2 div rmoveto show } BD
/SCR{ FC moveto SW neg SH -2 div rmoveto show } BD
/STL{ FC moveto 0 SH neg rmoveto show } BD
/STC{ FC moveto SW -2 div SH neg rmoveto show } BD
/STR{ FC moveto SW neg SH neg rmoveto show } BD
/FCT { FC translate 0 0 } BD
/SR  { gsave FCT moveto rotate show grestore } BD
/SRX  { gsave FCT moveto rotate xshow grestore } BD
/SBCR{ gsave FCT moveto rotate SW -2 div 0 rmoveto show grestore } BD
/SBRR{ gsave FCT moveto rotate SW neg 0 rmoveto show grestore } BD
/SCLR{ gsave FCT moveto rotate 0 SH -2 div rmoveto show grestore} BD
/SCCR{ gsave FCT moveto rotate SW -2 div SH -2 div rmoveto show grestore} BD
/SCRR{ gsave FCT moveto rotate SW neg SH -2 div rmoveto show grestore} BD
/STLR{ gsave FCT moveto rotate 0 SH neg rmoveto show grestore } BD
/STCR{ gsave FCT moveto rotate SW -2 div SH neg rmoveto show grestore } BD
/STRR{ gsave FCT moveto rotate SW neg SH neg rmoveto show grestore } BD
/P  { newpath 0.0 360.0 arc closepath fill } BD
/LS { newpath moveto } BD
/L  { lineto } BD
/LE { lineto stroke } BD
/T  { newpath moveto lineto lineto closepath fill } BD
/STshfill {
      /b1 exch def /g1 exch def /r1 exch def /y1 exch def /x1 exch def
      /b2 exch def /g2 exch def /r2 exch def /y2 exch def /x2 exch def
      /b3 exch def /g3 exch def /r3 exch def /y3 exch def /x3 exch def
      gsave << /ShadingType 4 /ColorSpace [/DeviceRGB]
      /DataSource [ 0 x1 y1 r1 g1 b1 0 x2 y2 r2 g2 b2 0 x3 y3 r3 g3 b3 ] >>
      shfill grestore } BD
/Tm { 3 -1 roll 8 -1 roll 13 -1 roll add add 3 div
      3 -1 roll 7 -1 roll 11 -1 roll add add 3 div
      3 -1 roll 6 -1 roll 9 -1 roll add add 3 div C T } BD
/STsplit {
      4 index 15 index add 0.5 mul
      4 index 15 index add 0.5 mul
      4 index 15 index add 0.5 mul
      4 index 15 index add 0.5 mul
      4 index 15 index add 0.5 mul
      5 copy 5 copy 25 15 roll
      9 index 30 index add 0.5 mul
      9 index 30 index add 0.5 mul
      9 index 30 index add 0.5 mul
      9 index 30 index add 0.5 mul
      9 index 30 index add 0.5 mul
      5 copy 5 copy 35 5 roll 25 5 roll 15 5 roll
      4 index 10 index add 0.5 mul
      4 index 10 index add 0.5 mul
      4 index 10 index add 0.5 mul
      4 index 10 index add 0.5 mul
      4 index 10 index add 0.5 mul
      5 copy 5 copy 40 5 roll 25 5 roll 15 5 roll 25 5 roll
      STnoshfill STnoshfill STnoshfill STnoshfill } BD
/STnoshfill {
      2 index 8 index sub abs rThreshold gt
      { STsplit }
      { 1 index 7 index sub abs gThreshold gt
        { STsplit }
        { dup 6 index sub abs bThreshold gt
          { STsplit }
          { 2 index 13 index sub abs rThreshold gt
            { STsplit }
            { 1 index 12 index sub abs gThreshold gt
              { STsplit }
              { dup 11 index sub abs bThreshold gt
                { STsplit }
                { 7 index 13 index sub abs rThreshold gt
                  { STsplit }
                  { 6 index 12 index sub abs gThreshold gt
                    { STsplit }
                    { 5 index 11 index sub abs bThreshold gt
                      { STsplit }
                      { Tm }
                      ifelse }
                    ifelse }
                  ifelse }
                ifelse }
              ifelse }
            ifelse }
          ifelse }
        ifelse }
      ifelse } BD
tryPS3shading
{ /shfill where
  { /ST { STshfill } BD }
  { /ST { STnoshfill } BD }
  ifelse }
{ /ST { STnoshfill } BD }
ifelse
end
%%EndProlog
%%BeginSetup
/DeviceRGB setcolorspace
gl2psdict begin
%%EndSetup
%%Page: 1 1
%%BeginPageSetup
%%EndPageSetup
mark
gsave
1.0 1.0 scale
1 1 1 C
newpath 0 0 moveto 360 0 lineto 360 252 lineto 0 252 lineto
closepath fill
gsave
1.0 1.0 scale
1 1 1 C
newpath 0 0 moveto 360 0 lineto 360 252 lineto 0 252 lineto
closepath fill
newpath 0 0 moveto 360 0 lineto 360 252 lineto 0 252 lineto
closepath clip
1 1 1 C
325.8 32.9418 46.8 57.3346 88.621 27.72 T
325.8 32.9418 283.979 62.5564 46.8 57.3346 T
295.888 176.104 283.979 233.1 293.755 226.177 T
295.888 176.105 301.243 50.3312 283.979 62.5564 T
283.979 233.1 295.888 176.105 283.979 62.5564 T
gsave
0.14902 0.14902 0.14902 C
(10) [6 10] 0 25.0971 64.2055 10 /Helvetica SRX
grestore

295.71 214.389 297.712 167.37 295.888 176.104 T
293.755 226.177 295.71 214.389 295.888 176.104 T
293.755 226.177 295.253 225.116 295.71 214.389 T
295.888 176.105 297.712 167.371 302.741 49.2703 T
301.243 50.3312 295.888 176.105 302.741 49.2703 T
249.282 61.7925 283.979 62.5564 283.979 87.1248 T
gsave
0.14902 0.14902 0.14902 C
(12) [6 10] 0 25.0971 98.3142 10 /Helvetica SRX
grestore

295.71 214.389 297.664 202.606 299.536 158.641 T
297.712 167.37 295.71 214.389 299.536 158.641 T
295.71 214.389 297.185 213.854 297.664 202.606 T
295.253 225.116 296.751 224.056 297.185 213.854 T
295.71 214.389 295.253 225.116 297.185 213.854 T
297.712 167.371 299.536 158.641 304.239 48.21 T
302.741 49.2703 297.712 167.371 304.239 48.21 T
227.56 80.0385 201.117 60.7321 249.282 61.7925 T
283.979 87.1248 227.56 80.0385 249.282 61.7925 T
283.979 87.1248 283.979 121.23 227.56 80.0385 T
0.5 W
1 LJ
0.494 0.184 0.556 C
262.544 62.0845 LS
283.979 62.5564 LE
0.494 0.184 0.556 C
276.768 64.4149 LS
283.979 62.5564 LE
0 0.447 0.741 C
276.768 64.4149 LS
283.979 62.5564 LE
0 0.447 0.741 C
284.492 65.6803 LS
283.979 62.5564 LE
gsave
0.14902 0.14902 0.14902 C
(14) [6 10] 0 25.0971 132.423 10 /Helvetica SRX
grestore

1 1 1 C
297.664 202.606 300.612 184.83 300.612 153.493 T
299.536 158.641 297.664 202.606 300.612 153.493 T
297.664 202.606 300.612 202.698 300.612 184.83 T
297.185 213.854 300.612 212.612 300.612 202.698 T
297.664 202.606 297.185 213.854 300.612 202.698 T
296.751 224.056 300.612 221.322 300.612 212.612 T
297.185 213.854 296.751 224.056 300.612 212.612 T
300.612 133.385 299.536 158.641 300.612 153.494 T
0 LJ
0.15 0.15 0.15 C
45.0035 58.6067 LS
41.1484 61.3366 LE
gsave
0.14902 0.14902 0.14902 C
(16) [6 10] 0 25.0971 166.532 10 /Helvetica SRX
grestore

45.0033 92.7156 LS
41.1484 95.4453 LE
gsave
0.14902 0.14902 0.14902 C
(18) [6 10] 0 25.0971 200.64 10 /Helvetica SRX
grestore

45.0033 126.824 LS
41.1484 129.554 LE
gsave
0.14902 0.14902 0.14902 C
(20) [6 10] 0 25.0971 234.749 10 /Helvetica SRX
grestore

45.0036 160.933 LS
41.1484 163.663 LE
45.0038 195.041 LS
41.1484 197.771 LE
45.0037 229.15 LS
41.1484 231.88 LE
1 1 1 C
46.8 57.3346 283.979 233.1 46.8 227.878 T
227.56 80.0385 46.8 57.3346 201.117 60.7321 T
283.979 233.1 46.8 57.3346 227.56 80.0385 T
283.979 121.23 283.979 233.1 227.56 80.0385 T
300.612 184.83 325.8 32.9418 300.612 153.493 T
325.8 203.485 325.8 32.9418 300.612 184.83 T
300.612 202.698 325.8 203.485 300.612 184.83 T
300.612 212.612 325.8 203.485 300.612 202.698 T
300.612 221.322 325.8 203.485 300.612 212.612 T
300.612 133.385 300.612 153.494 325.8 32.9418 T
304.239 48.21 300.612 133.385 325.8 32.9418 T
0.15 0.15 0.15 C
55.1642 51.4116 LS
48.1855 51.258 LE
gsave
0.14902 0.14902 0.14902 C
(1.2) [6 3 10] 0 28.1828 43.1479 10 /Helvetica SRX
grestore

63.5284 45.4887 LS
56.5497 45.3351 LE
gsave
0.14902 0.14902 0.14902 C
(1.4) [6 3 10] 0 36.547 37.225 10 /Helvetica SRX
grestore

71.8926 39.5658 LS
64.9139 39.4122 LE
2 LC
[16 0] 0 setdash
72.2652 39.302 LS
46.8 57.3346 LE
gsave
0.14902 0.14902 0.14902 C
(1) [10] 0 28.8186 49.0708 10 /Helvetica SRX
grestore

0 LC
[] 0 setdash
46.8 57.3346 LS
39.8213 57.1809 LE
1 LJ
0 0.447 0.741 C
46.8 57.3346 LS
94.2358 58.3789 LE
0.85 0.325 0.098 C
94.2358 58.3789 LS
165.389 59.9455 LE
0.929 0.694 0.125 C
165.389 59.9455 LS
236.543 61.5121 LE
0.494 0.184 0.556 C
262.544 62.0845 LS
236.543 61.5121 LE
0 LJ
0.15 0.15 0.15 C
45.0035 58.6067 LS
46.8 57.3346 LE
45.0033 92.7156 LS
46.8 91.4433 LE
45.0033 126.824 LS
46.8 125.552 LE
45.0036 160.933 LS
46.8 159.661 LE
45.0038 195.041 LS
46.8 193.769 LE
2 LC
[16 0] 0 setdash
46.8 227.878 LS
46.8 57.3346 LE
0 LC
[] 0 setdash
45.0037 229.15 LS
46.8 227.878 LE
1 LJ
0 0.447 0.741 C
48.891 70.0658 LS
46.8 57.3346 LE
0.85 0.325 0.098 C
50.9821 82.797 LS
48.891 70.0658 LE
0 0.447 0.741 C
94.2358 58.3789 LS
48.891 70.0658 LE
0.466 0.674 0.188 C
48.891 70.0658 LS
94.2358 58.3789 LE
96.3269 71.1102 LS
48.891 70.0658 LE
0.85 0.325 0.098 C
48.891 70.0658 LS
96.3269 71.1102 L
94.2358 58.3789 LE
0.466 0.674 0.188 C
94.2358 58.3789 LS
96.3269 71.1102 LE
0.85 0.325 0.098 C
165.389 59.9455 LS
96.3269 71.1102 LE
0.301 0.745 0.933 C
96.3269 71.1102 LS
165.389 59.9455 LE
0.929 0.694 0.125 C
167.481 72.6767 LS
165.389 59.9455 LE
0.301 0.745 0.933 C
165.389 59.9455 LS
167.481 72.6767 LE
0.929 0.694 0.125 C
236.543 61.5121 LS
167.481 72.6767 LE
0.635 0.078 0.184 C
167.481 72.6767 LS
236.543 61.5121 LE
0.494 0.184 0.556 C
238.634 74.2433 LS
236.543 61.5121 LE
0.635 0.078 0.184 C
236.543 61.5121 LS
238.634 74.2433 LE
0.494 0.184 0.556 C
276.768 64.4149 LS
238.634 74.2433 LE
0 0.447 0.741 C
276.768 64.4149 LS
238.634 74.2433 LE
0 0.447 0.741 C
284.492 65.6803 LS
286.07 75.2877 LE
0.301 0.745 0.933 C
167.481 72.6767 LS
96.3269 71.1102 LE
0.635 0.078 0.184 C
238.634 74.2433 LS
167.481 72.6767 LE
0 0.447 0.741 C
286.07 75.2877 LS
238.634 74.2433 LE
0.929 0.694 0.125 C
96.3269 71.1102 LS
167.481 72.6767 LE
0.494 0.184 0.556 C
167.481 72.6767 LS
238.634 74.2433 LE
0.466 0.674 0.188 C
238.634 74.2433 LS
286.07 75.2877 LE
0.85 0.325 0.098 C
96.3269 71.1102 LS
50.9821 82.797 LE
0.301 0.745 0.933 C
50.9821 82.797 LS
96.3269 71.1102 LE
0.929 0.694 0.125 C
98.4179 83.8414 LS
96.3269 71.1102 LE
0.301 0.745 0.933 C
96.3269 71.1102 LS
98.4179 83.8414 LE
0.929 0.694 0.125 C
167.481 72.6767 LS
98.4179 83.8414 LE
0.635 0.078 0.184 C
98.4179 83.8414 LS
167.481 72.6767 LE
0.494 0.184 0.556 C
169.572 85.408 LS
167.481 72.6767 LE
0.635 0.078 0.184 C
167.481 72.6767 LS
169.572 85.408 LE
0.494 0.184 0.556 C
238.634 74.2433 LS
169.572 85.408 LE
0 0.447 0.741 C
169.572 85.408 LS
238.634 74.2433 LE
0.466 0.674 0.188 C
240.725 86.9745 LS
238.634 74.2433 LE
0 0.447 0.741 C
238.634 74.2433 LS
240.725 86.9745 LE
0.466 0.674 0.188 C
286.07 75.2877 LS
240.725 86.9745 LE
0.85 0.325 0.098 C
240.725 86.9745 LS
286.07 75.2877 L
288.161 88.0189 LE
0.301 0.745 0.933 C
98.4179 83.8414 LS
50.9821 82.797 LE
0.635 0.078 0.184 C
169.572 85.408 LS
98.4179 83.8414 LE
0 0.447 0.741 C
240.725 86.9745 LS
169.572 85.408 LE
0.85 0.325 0.098 C
288.161 88.0189 LS
240.725 86.9745 LE
0.929 0.694 0.125 C
50.9821 82.797 LS
98.4179 83.8414 LE
0.494 0.184 0.556 C
98.4179 83.8414 LS
169.572 85.408 LE
0.466 0.674 0.188 C
169.572 85.408 LS
240.725 86.9745 LE
0.301 0.745 0.933 C
240.725 86.9745 LS
288.161 88.0189 LE
0.929 0.694 0.125 C
55.1642 94.0475 LS
50.9821 82.797 LE
98.4179 83.8414 LS
55.1642 94.0475 LE
0.635 0.078 0.184 C
55.1642 94.0475 LS
98.4179 83.8414 LE
102.6 95.0919 LS
55.1642 94.0475 LE
0.494 0.184 0.556 C
55.1642 94.0475 LS
102.6 95.0919 LE
59.3463 105.298 LS
55.1642 94.0475 LE
102.6 95.0919 LS
59.3463 105.298 LE
0 0.447 0.741 C
59.3463 105.298 LS
102.6 95.0919 LE
106.782 106.342 LS
59.3463 105.298 LE
0.466 0.674 0.188 C
59.3463 105.298 LS
106.782 106.342 LE
67.7105 127.799 LS
59.3463 105.298 LE
106.782 106.342 LS
67.7105 127.799 LE
0.85 0.325 0.098 C
67.7105 127.799 LS
106.782 106.342 LE
115.146 128.843 LS
67.7105 127.799 LE
0.301 0.745 0.933 C
67.7105 127.799 LS
115.146 128.843 LE
68.4158 129.696 LS
67.7105 127.799 LE
0.301 0.745 0.933 C
107.092 133.267 LS
115.146 128.843 LE
0.929 0.694 0.125 C
107.092 133.267 LS
115.146 128.843 LE
0.494 0.184 0.556 C
102.6 95.0919 LS
98.4179 83.8414 LE
0.635 0.078 0.184 C
98.4179 83.8414 LS
102.6 95.0919 LE
0.466 0.674 0.188 C
106.782 106.342 LS
102.6 95.0919 LE
0 0.447 0.741 C
102.6 95.0919 LS
106.782 106.342 LE
0.301 0.745 0.933 C
115.146 128.843 LS
106.782 106.342 LE
0.85 0.325 0.098 C
106.782 106.342 LS
115.146 128.843 LE
0.635 0.078 0.184 C
117.135 134.193 LS
115.146 128.843 LE
0.929 0.694 0.125 C
117.135 134.193 LS
115.146 128.843 LE
0.494 0.184 0.556 C
169.572 85.408 LS
102.6 95.0919 LE
0 0.447 0.741 C
102.6 95.0919 LS
169.572 85.408 LE
173.754 96.6585 LS
102.6 95.0919 LE
0.466 0.674 0.188 C
102.6 95.0919 LS
173.754 96.6585 L
169.572 85.408 LE
0 0.447 0.741 C
169.572 85.408 LS
173.754 96.6585 LE
0.466 0.674 0.188 C
240.725 86.9745 LS
173.754 96.6585 LE
0.85 0.325 0.098 C
173.754 96.6585 LS
240.725 86.9745 LE
0.466 0.674 0.188 C
173.754 96.6585 LS
106.782 106.342 LE
0.85 0.325 0.098 C
106.782 106.342 LS
173.754 96.6585 LE
244.907 98.225 LS
173.754 96.6585 LE
0.301 0.745 0.933 C
173.754 96.6585 LS
244.907 98.225 LE
0.85 0.325 0.098 C
177.936 107.909 LS
106.782 106.342 LE
0.301 0.745 0.933 C
106.782 106.342 LS
177.936 107.909 L
173.754 96.6585 LE
0.85 0.325 0.098 C
173.754 96.6585 LS
177.936 107.909 LE
0.301 0.745 0.933 C
244.907 98.225 LS
177.936 107.909 LE
0.929 0.694 0.125 C
177.936 107.909 LS
244.907 98.225 LE
249.089 109.476 LS
177.936 107.909 LE
0.635 0.078 0.184 C
177.936 107.909 LS
249.089 109.476 LE
0.301 0.745 0.933 C
177.936 107.909 LS
115.146 128.843 LE
0.929 0.694 0.125 C
115.146 128.843 LS
177.936 107.909 LE
186.3 130.41 LS
115.146 128.843 LE
0.635 0.078 0.184 C
115.146 128.843 LS
186.3 130.41 L
177.936 107.909 LE
0.929 0.694 0.125 C
177.936 107.909 LS
186.3 130.41 LE
0.635 0.078 0.184 C
249.089 109.476 LS
186.3 130.41 LE
0.494 0.184 0.556 C
186.3 130.41 LS
249.089 109.476 LE
0.635 0.078 0.184 C
162.417 138.373 LS
186.3 130.41 LE
0.494 0.184 0.556 C
162.417 138.373 LS
186.3 130.41 LE
0.494 0.184 0.556 C
257.454 131.977 LS
186.3 130.41 LE
0 0.447 0.741 C
186.3 130.41 LS
257.454 131.977 LE
190.214 140.938 LS
186.3 130.41 LE
0.494 0.184 0.556 C
190.214 140.938 LS
186.3 130.41 LE
0 0.447 0.741 C
221.823 143.856 LS
257.454 131.977 LE
0.466 0.674 0.188 C
221.823 143.856 LS
257.454 131.977 LE
0.301 0.745 0.933 C
244.907 98.225 LS
240.725 86.9745 LE
0.85 0.325 0.098 C
240.725 86.9745 LS
244.907 98.225 LE
0.635 0.078 0.184 C
249.089 109.476 LS
244.907 98.225 LE
0.929 0.694 0.125 C
244.907 98.225 LS
249.089 109.476 LE
0 0.447 0.741 C
257.454 131.977 LS
249.089 109.476 LE
0.494 0.184 0.556 C
249.089 109.476 LS
257.454 131.977 LE
0.85 0.325 0.098 C
263.293 147.684 LS
257.454 131.977 LE
0.466 0.674 0.188 C
263.293 147.684 LS
257.454 131.977 LE
0.301 0.745 0.933 C
288.161 88.0189 LS
244.907 98.225 LE
0.929 0.694 0.125 C
244.907 98.225 LS
288.161 88.0189 LE
292.343 99.2694 LS
244.907 98.225 LE
0.635 0.078 0.184 C
244.907 98.225 LS
292.343 99.2694 L
249.089 109.476 LE
0.494 0.184 0.556 C
249.089 109.476 LS
292.343 99.2694 LE
296.525 110.52 LS
249.089 109.476 LE
0 0.447 0.741 C
249.089 109.476 LS
296.525 110.52 L
257.454 131.977 LE
0.466 0.674 0.188 C
257.454 131.977 LS
296.525 110.52 LE
304.889 133.021 LS
257.454 131.977 LE
0.85 0.325 0.098 C
257.454 131.977 LS
304.889 133.021 LE
276.045 148.861 LS
304.889 133.021 LE
0.301 0.745 0.933 C
276.045 148.861 LS
304.889 133.021 LE
0.929 0.694 0.125 C
288.161 88.0189 LS
292.343 99.2694 LE
0.494 0.184 0.556 C
292.343 99.2694 LS
296.525 110.52 LE
0.466 0.674 0.188 C
296.525 110.52 LS
304.889 133.021 LE
0.301 0.745 0.933 C
312.012 152.181 LS
304.889 133.021 LE
gsave
0.14902 0.14902 0.14902 C
(1.6) [6 3 10] 0 44.9113 31.302 10 /Helvetica SRX
grestore

0 LJ
0.15 0.15 0.15 C
92.4248 25.0265 LS
88.621 27.72 LE
141.335 25.0265 LS
136.057 28.7644 LE
183.493 29.8087 LS
189.144 25.8067 LE
230.928 30.8531 LS
236.58 26.851 LE
278.364 31.8975 LS
284.016 27.8954 LE
325.8 32.9418 LS
331.452 28.9398 LE
gsave
0.14902 0.14902 0.14902 C
(2) [10] 0 335.503 18.0709 10 /Helvetica SRX
grestore

gsave
0.14902 0.14902 0.14902 C
(2) [10] 0 70.6397 19.4562 10 /Helvetica SRX
grestore

88.621 27.72 LS
81.6423 27.5663 LE
2 LC
[16 0] 0 setdash
88.621 27.72 LS
325.8 32.9418 LE
0 LC
[] 0 setdash
80.2568 33.6429 LS
73.2781 33.4893 LE
gsave
0.14902 0.14902 0.14902 C
(1.8) [6 3 10] 0 53.2755 25.3791 10 /Helvetica SRX
grestore

2 LC
[16 0] 0 setdash
72.2652 39.302 LS
88.621 27.72 LE
0 LC
1 LJ
[] 0 setdash
0.301 0.745 0.933 C
68.4158 129.696 LS
76.0747 150.3 LE
0.301 0.745 0.933 C
107.092 133.267 LS
76.0747 150.3 LE
0.929 0.694 0.125 C
107.092 133.267 LS
76.0747 150.3 LE
0.635 0.078 0.184 C
117.135 134.193 LS
123.511 151.344 LE
0.929 0.694 0.125 C
117.135 134.193 LS
123.511 151.344 LE
0.635 0.078 0.184 C
162.417 138.373 LS
123.511 151.344 LE
0.494 0.184 0.556 C
162.417 138.373 LS
123.511 151.344 LE
0 0.447 0.741 C
190.214 140.938 LS
194.664 152.911 LE
0.494 0.184 0.556 C
190.214 140.938 LS
194.664 152.911 LE
0 0.447 0.741 C
221.823 143.856 LS
194.664 152.911 LE
0.466 0.674 0.188 C
221.823 143.856 LS
194.664 152.911 LE
0.85 0.325 0.098 C
263.293 147.684 LS
265.818 154.478 LE
0.466 0.674 0.188 C
263.293 147.684 LS
265.818 154.478 LE
0.85 0.325 0.098 C
276.045 148.861 LS
265.818 154.478 LE
0.301 0.745 0.933 C
276.045 148.861 LS
265.818 154.478 LE
0.301 0.745 0.933 C
312.012 152.181 LS
313.254 155.522 LE
0.929 0.694 0.125 C
123.511 151.344 LS
76.0747 150.3 LE
0.494 0.184 0.556 C
194.664 152.911 LS
123.511 151.344 LE
0.466 0.674 0.188 C
265.818 154.478 LS
194.664 152.911 LE
0.301 0.745 0.933 C
313.254 155.522 LS
265.818 154.478 LE
0.635 0.078 0.184 C
76.0747 150.3 LS
123.511 151.344 LE
0 0.447 0.741 C
123.511 151.344 LS
194.664 152.911 LE
0.85 0.325 0.098 C
194.664 152.911 LS
265.818 154.478 LE
0.929 0.694 0.125 C
265.818 154.478 LS
313.254 155.522 LE
0.635 0.078 0.184 C
80.2568 161.551 LS
76.0747 150.3 LE
123.511 151.344 LS
80.2568 161.551 LE
0.494 0.184 0.556 C
80.2568 161.551 LS
123.511 151.344 LE
0 0.447 0.741 C
127.693 162.595 LS
123.511 151.344 LE
0.494 0.184 0.556 C
123.511 151.344 LS
127.693 162.595 LE
0 0.447 0.741 C
194.664 152.911 LS
127.693 162.595 LE
0.466 0.674 0.188 C
127.693 162.595 LS
194.664 152.911 LE
0.85 0.325 0.098 C
198.846 164.162 LS
194.664 152.911 LE
0.466 0.674 0.188 C
194.664 152.911 LS
198.846 164.162 LE
0.85 0.325 0.098 C
265.818 154.478 LS
198.846 164.162 LE
0.301 0.745 0.933 C
198.846 164.162 LS
265.818 154.478 LE
0.929 0.694 0.125 C
270 165.728 LS
265.818 154.478 LE
0.301 0.745 0.933 C
265.818 154.478 LS
270 165.728 LE
0.929 0.694 0.125 C
313.254 155.522 LS
270 165.728 LE
0.635 0.078 0.184 C
270 165.728 LS
313.254 155.522 L
317.436 166.772 LE
0.494 0.184 0.556 C
127.693 162.595 LS
80.2568 161.551 LE
0.466 0.674 0.188 C
198.846 164.162 LS
127.693 162.595 LE
0.301 0.745 0.933 C
270 165.728 LS
198.846 164.162 LE
0.635 0.078 0.184 C
317.436 166.772 LS
270 165.728 LE
0 0.447 0.741 C
80.2568 161.551 LS
127.693 162.595 LE
0.85 0.325 0.098 C
127.693 162.595 LS
198.846 164.162 LE
0.929 0.694 0.125 C
198.846 164.162 LS
270 165.728 LE
0.494 0.184 0.556 C
270 165.728 LS
317.436 166.772 LE
0 0.447 0.741 C
84.4389 172.801 LS
80.2568 161.551 LE
127.693 162.595 LS
84.4389 172.801 LE
0.466 0.674 0.188 C
84.4389 172.801 LS
127.693 162.595 LE
0.85 0.325 0.098 C
131.875 173.845 LS
127.693 162.595 LE
0.466 0.674 0.188 C
127.693 162.595 LS
131.875 173.845 LE
0.85 0.325 0.098 C
198.846 164.162 LS
131.875 173.845 LE
0.301 0.745 0.933 C
131.875 173.845 LS
198.846 164.162 LE
0.929 0.694 0.125 C
203.028 175.412 LS
198.846 164.162 LE
0.301 0.745 0.933 C
198.846 164.162 LS
203.028 175.412 LE
0.929 0.694 0.125 C
270 165.728 LS
203.028 175.412 LE
0.635 0.078 0.184 C
203.028 175.412 LS
270 165.728 LE
0.494 0.184 0.556 C
274.182 176.979 LS
270 165.728 LE
0.635 0.078 0.184 C
270 165.728 LS
274.182 176.979 LE
0.494 0.184 0.556 C
317.436 166.772 LS
274.182 176.979 LE
0 0.447 0.741 C
274.182 176.979 LS
317.436 166.772 L
321.618 178.023 LE
0.466 0.674 0.188 C
131.875 173.845 LS
84.4389 172.801 LE
0.301 0.745 0.933 C
203.028 175.412 LS
131.875 173.845 LE
0.635 0.078 0.184 C
274.182 176.979 LS
203.028 175.412 LE
0 0.447 0.741 C
321.618 178.023 LS
274.182 176.979 LE
0.85 0.325 0.098 C
84.4389 172.801 LS
131.875 173.845 LE
0.929 0.694 0.125 C
131.875 173.845 LS
203.028 175.412 LE
0.494 0.184 0.556 C
203.028 175.412 LS
274.182 176.979 LE
0.466 0.674 0.188 C
274.182 176.979 LS
321.618 178.023 LE
0.85 0.325 0.098 C
85.7836 180.988 LS
84.4389 172.801 LE
97.0182 182.829 LS
131.875 173.845 LE
0.301 0.745 0.933 C
97.0182 182.829 LS
131.875 173.845 LE
0.301 0.745 0.933 C
117.702 186.219 LS
133.966 186.577 LE
0.929 0.694 0.125 C
117.702 186.219 LS
133.966 186.577 L
131.875 173.845 LE
0.301 0.745 0.933 C
131.875 173.845 LS
133.966 186.577 LE
0.929 0.694 0.125 C
203.028 175.412 LS
133.966 186.577 LE
0.635 0.078 0.184 C
133.966 186.577 LS
203.028 175.412 LE
205.119 188.143 LS
133.966 186.577 LE
0.494 0.184 0.556 C
133.966 186.577 LS
205.119 188.143 LE
0.929 0.694 0.125 C
128.494 187.987 LS
133.966 186.577 LE
0.635 0.078 0.184 C
128.494 187.987 LS
133.966 186.577 LE
0.494 0.184 0.556 C
134.355 188.947 LS
133.966 186.577 LE
0.635 0.078 0.184 C
134.355 188.947 LS
133.966 186.577 LE
0.494 0.184 0.556 C
205.119 188.143 LS
203.028 175.412 LE
0.635 0.078 0.184 C
203.028 175.412 LS
205.119 188.143 LE
0.494 0.184 0.556 C
274.182 176.979 LS
205.119 188.143 LE
0 0.447 0.741 C
205.119 188.143 LS
274.182 176.979 LE
0.494 0.184 0.556 C
167.026 194.301 LS
205.119 188.143 LE
0 0.447 0.741 C
167.026 194.301 LS
205.119 188.143 LE
0 0.447 0.741 C
276.273 189.71 LS
205.119 188.143 LE
0.466 0.674 0.188 C
205.119 188.143 LS
276.273 189.71 LE
0 0.447 0.741 C
207.123 200.873 LS
207.211 200.874 LE
0.466 0.674 0.188 C
207.211 200.874 LS
205.119 188.143 LE
0 0.447 0.741 C
205.119 188.143 LS
207.211 200.874 LE
0.466 0.674 0.188 C
276.273 189.71 LS
207.211 200.874 LE
0.85 0.325 0.098 C
207.211 200.874 LS
276.273 189.71 LE
278.364 202.441 LS
207.211 200.874 LE
0.466 0.674 0.188 C
276.273 189.71 LS
274.182 176.979 LE
0 0.447 0.741 C
274.182 176.979 LS
276.273 189.71 LE
0.301 0.745 0.933 C
278.364 202.441 LS
276.273 189.71 LE
0.85 0.325 0.098 C
276.273 189.71 LS
278.364 202.441 LE
0.466 0.674 0.188 C
321.618 178.023 LS
276.273 189.71 LE
0.85 0.325 0.098 C
276.273 189.71 LS
321.618 178.023 LE
323.709 190.754 LS
276.273 189.71 LE
0.301 0.745 0.933 C
276.273 189.71 LS
323.709 190.754 L
278.364 202.441 LE
0.929 0.694 0.125 C
278.364 202.441 LS
323.709 190.754 LE
325.8 203.485 LS
278.364 202.441 LE
0.85 0.325 0.098 C
321.618 178.023 LS
323.709 190.754 LE
0.929 0.694 0.125 C
323.709 190.754 LS
325.8 203.485 LE
gsave
0.14902 0.14902 0.14902 C
(1.8) [6 3 10] 0 288.067 17.0266 10 /Helvetica SRX
grestore

0 LJ
0.15 0.15 0.15 C
92.4248 25.0265 LS
93.8995 23.9822 LE
141.335 25.0265 LS
141.708 24.7623 LE
1 LJ
0.85 0.325 0.098 C
85.7836 180.988 LS
86.53 185.532 LE
97.0182 182.829 LS
86.53 185.532 LE
0.301 0.745 0.933 C
97.0182 182.829 LS
86.53 185.532 LE
0.301 0.745 0.933 C
117.702 186.219 LS
86.53 185.532 LE
0.929 0.694 0.125 C
117.702 186.219 LS
86.53 185.532 LE
86.9194 187.903 LS
86.53 185.532 LE
128.494 187.987 LS
112.534 192.1 LE
0.635 0.078 0.184 C
128.494 187.987 LS
112.534 192.1 LE
0.494 0.184 0.556 C
134.355 188.947 LS
135.491 195.862 LE
0.635 0.078 0.184 C
134.355 188.947 LS
135.491 195.862 LE
0.494 0.184 0.556 C
167.026 194.301 LS
146.356 197.643 LE
0 0.447 0.741 C
167.026 194.301 LS
146.356 197.643 LE
0 0.447 0.741 C
207.123 200.873 LS
159.691 199.828 LE
gsave
0.14902 0.14902 0.14902 C
(1.6) [6 3 10] 0 240.631 15.9822 10 /Helvetica SRX
grestore

0 LJ
0.15 0.15 0.15 C
93.8995 23.9822 LS
94.2727 23.7179 LE
1 LJ
0.929 0.694 0.125 C
86.9194 187.903 LS
88.0554 194.82 LE
112.534 192.1 LS
96.5699 196.215 LE
0.635 0.078 0.184 C
112.534 192.1 LS
96.5699 196.215 LE
112.246 198.784 LS
136.057 199.308 LE
0.494 0.184 0.556 C
135.491 195.862 LS
136.057 199.308 LE
0.635 0.078 0.184 C
135.491 195.862 LS
136.057 199.308 LE
0.494 0.184 0.556 C
146.356 197.643 LS
136.057 199.308 LE
0 0.447 0.741 C
146.356 197.643 LS
136.057 199.308 LE
0 0.447 0.741 C
159.691 199.828 LS
136.057 199.308 LE
gsave
0.14902 0.14902 0.14902 C
(1.4) [6 3 10] 0 193.196 14.9378 10 /Helvetica SRX
grestore

0.929 0.694 0.125 C
88.0554 194.82 LS
88.621 198.264 LE
0.929 0.694 0.125 C
96.5699 196.215 LS
88.621 198.264 LE
0.635 0.078 0.184 C
96.5699 196.215 LS
88.621 198.264 LE
112.246 198.784 LS
88.621 198.264 LE
gsave
0.14902 0.14902 0.14902 C
(1.2) [6 3 10] 0 145.76 13.8935 10 /Helvetica SRX
grestore

gsave
0.14902 0.14902 0.14902 C
(1) [10] 0 98.324 12.8491 10 /Helvetica SRX
grestore

grestore
grestore
showpage
cleartomark
%%PageTrailer
%%Trailer
end
%%EOF
