%!PS-Adobe-3.0 EPSF-3.0
%%Title: gl2ps_renderer figure
%%Creator: GL2PS 1.4.0, (C) 1999-2017 C. Geuzaine
%%For: Octave
%%CreationDate: Mon Feb  3 11:34:57 2020
%%LanguageLevel: 3
%%DocumentData: Clean7Bit
%%Pages: 1
%%BoundingBox: 0 0 360 252
%%EndComments
%%BeginProlog
/gl2psdict 64 dict def gl2psdict begin
/tryPS3shading false def % set to false to force subdivision
/rThreshold 0.064 def % red component subdivision threshold
/gThreshold 0.034 def % green component subdivision threshold
/bThreshold 0.1 def % blue component subdivision threshold
/BD { bind def } bind def
/C  { setrgbcolor } BD
/G  { 0.082 mul exch 0.6094 mul add exch 0.3086 mul add neg 1.0 add setgray } BD
/W  { setlinewidth } BD
/LC  { setlinecap } BD
/LJ  { setlinejoin } BD
/FC { findfont exch /SH exch def SH scalefont setfont } BD
/SW { dup stringwidth pop } BD
/S  { FC moveto show } BD
/SBC{ FC moveto SW -2 div 0 rmoveto show } BD
/SBR{ FC moveto SW neg 0 rmoveto show } BD
/SCL{ FC moveto 0 SH -2 div rmoveto show } BD
/SCC{ FC moveto SW -2 div SH -2 div rmoveto show } BD
/SCR{ FC moveto SW neg SH -2 div rmoveto show } BD
/STL{ FC moveto 0 SH neg rmoveto show } BD
/STC{ FC moveto SW -2 div SH neg rmoveto show } BD
/STR{ FC moveto SW neg SH neg rmoveto show } BD
/FCT { FC translate 0 0 } BD
/SR  { gsave FCT moveto rotate show grestore } BD
/SRX  { gsave FCT moveto rotate xshow grestore } BD
/SBCR{ gsave FCT moveto rotate SW -2 div 0 rmoveto show grestore } BD
/SBRR{ gsave FCT moveto rotate SW neg 0 rmoveto show grestore } BD
/SCLR{ gsave FCT moveto rotate 0 SH -2 div rmoveto show grestore} BD
/SCCR{ gsave FCT moveto rotate SW -2 div SH -2 div rmoveto show grestore} BD
/SCRR{ gsave FCT moveto rotate SW neg SH -2 div rmoveto show grestore} BD
/STLR{ gsave FCT moveto rotate 0 SH neg rmoveto show grestore } BD
/STCR{ gsave FCT moveto rotate SW -2 div SH neg rmoveto show grestore } BD
/STRR{ gsave FCT moveto rotate SW neg SH neg rmoveto show grestore } BD
/P  { newpath 0.0 360.0 arc closepath fill } BD
/LS { newpath moveto } BD
/L  { lineto } BD
/LE { lineto stroke } BD
/T  { newpath moveto lineto lineto closepath fill } BD
/STshfill {
      /b1 exch def /g1 exch def /r1 exch def /y1 exch def /x1 exch def
      /b2 exch def /g2 exch def /r2 exch def /y2 exch def /x2 exch def
      /b3 exch def /g3 exch def /r3 exch def /y3 exch def /x3 exch def
      gsave << /ShadingType 4 /ColorSpace [/DeviceRGB]
      /DataSource [ 0 x1 y1 r1 g1 b1 0 x2 y2 r2 g2 b2 0 x3 y3 r3 g3 b3 ] >>
      shfill grestore } BD
/Tm { 3 -1 roll 8 -1 roll 13 -1 roll add add 3 div
      3 -1 roll 7 -1 roll 11 -1 roll add add 3 div
      3 -1 roll 6 -1 roll 9 -1 roll add add 3 div C T } BD
/STsplit {
      4 index 15 index add 0.5 mul
      4 index 15 index add 0.5 mul
      4 index 15 index add 0.5 mul
      4 index 15 index add 0.5 mul
      4 index 15 index add 0.5 mul
      5 copy 5 copy 25 15 roll
      9 index 30 index add 0.5 mul
      9 index 30 index add 0.5 mul
      9 index 30 index add 0.5 mul
      9 index 30 index add 0.5 mul
      9 index 30 index add 0.5 mul
      5 copy 5 copy 35 5 roll 25 5 roll 15 5 roll
      4 index 10 index add 0.5 mul
      4 index 10 index add 0.5 mul
      4 index 10 index add 0.5 mul
      4 index 10 index add 0.5 mul
      4 index 10 index add 0.5 mul
      5 copy 5 copy 40 5 roll 25 5 roll 15 5 roll 25 5 roll
      STnoshfill STnoshfill STnoshfill STnoshfill } BD
/STnoshfill {
      2 index 8 index sub abs rThreshold gt
      { STsplit }
      { 1 index 7 index sub abs gThreshold gt
        { STsplit }
        { dup 6 index sub abs bThreshold gt
          { STsplit }
          { 2 index 13 index sub abs rThreshold gt
            { STsplit }
            { 1 index 12 index sub abs gThreshold gt
              { STsplit }
              { dup 11 index sub abs bThreshold gt
                { STsplit }
                { 7 index 13 index sub abs rThreshold gt
                  { STsplit }
                  { 6 index 12 index sub abs gThreshold gt
                    { STsplit }
                    { 5 index 11 index sub abs bThreshold gt
                      { STsplit }
                      { Tm }
                      ifelse }
                    ifelse }
                  ifelse }
                ifelse }
              ifelse }
            ifelse }
          ifelse }
        ifelse }
      ifelse } BD
tryPS3shading
{ /shfill where
  { /ST { STshfill } BD }
  { /ST { STnoshfill } BD }
  ifelse }
{ /ST { STnoshfill } BD }
ifelse
end
%%EndProlog
%%BeginSetup
/DeviceRGB setcolorspace
gl2psdict begin
%%EndSetup
%%Page: 1 1
%%BeginPageSetup
%%EndPageSetup
mark
gsave
1.0 1.0 scale
1 1 1 C
newpath 0 0 moveto 360 0 lineto 360 252 lineto 0 252 lineto
closepath fill
gsave
1.0 1.0 scale
1 1 1 C
newpath 0 0 moveto 360 0 lineto 360 252 lineto 0 252 lineto
closepath fill
newpath 0 0 moveto 360 0 lineto 360 252 lineto 0 252 lineto
closepath clip
1 1 1 C
46.8 233.1 325.8 27.72 46.8 27.72 T
46.8 233.1 325.8 233.1 325.8 27.72 T
0.5 W
0.15 0.15 0.15 C
46.8 27.72 LS
46.8 30.5152 LE
46.8 233.1 LS
46.8 230.305 LE
86.6572 27.72 LS
86.6572 30.5152 LE
86.6572 233.1 LS
86.6572 230.305 LE
126.514 27.72 LS
126.514 30.5152 LE
126.514 233.1 LS
126.514 230.305 LE
166.371 27.72 LS
166.371 30.5152 LE
166.371 233.1 LS
166.371 230.305 LE
206.229 27.72 LS
206.229 30.5152 LE
206.229 233.1 LS
206.229 230.305 LE
246.086 27.72 LS
246.086 30.5152 LE
246.086 233.1 LS
246.086 230.305 LE
285.943 27.72 LS
285.943 30.5152 LE
285.943 233.1 LS
285.943 230.305 LE
325.8 27.72 LS
325.8 30.5152 LE
325.8 233.1 LS
325.8 230.305 LE
gsave
0.14902 0.14902 0.14902 C
(0) [10] 0 43.8 12.2061 10 /Helvetica SRX
grestore

gsave
0.14902 0.14902 0.14902 C
(0.5) [6 3 10] 0 79.1571 12.2061 10 /Helvetica SRX
grestore

gsave
0.14902 0.14902 0.14902 C
(1) [10] 0 123.514 12.2061 10 /Helvetica SRX
grestore

gsave
0.14902 0.14902 0.14902 C
(1.5) [6 3 10] 0 158.871 12.2061 10 /Helvetica SRX
grestore

gsave
0.14902 0.14902 0.14902 C
(2) [10] 0 203.229 12.2061 10 /Helvetica SRX
grestore

gsave
0.14902 0.14902 0.14902 C
(2.5) [6 3 10] 0 238.586 12.2061 10 /Helvetica SRX
grestore

gsave
0.14902 0.14902 0.14902 C
(3) [10] 0 282.943 12.2061 10 /Helvetica SRX
grestore

gsave
0.14902 0.14902 0.14902 C
(3.5) [6 3 10] 0 318.3 12.2061 10 /Helvetica SRX
grestore

46.8 27.72 LS
49.59 27.72 LE
325.8 27.72 LS
323.01 27.72 LE
46.8 68.796 LS
49.59 68.796 LE
325.8 68.796 LS
323.01 68.796 LE
46.8 109.872 LS
49.59 109.872 LE
325.8 109.872 LS
323.01 109.872 LE
46.8 150.948 LS
49.59 150.948 LE
325.8 150.948 LS
323.01 150.948 LE
46.8 192.024 LS
49.59 192.024 LE
325.8 192.024 LS
323.01 192.024 LE
46.8 233.1 LS
49.59 233.1 LE
325.8 233.1 LS
323.01 233.1 LE
gsave
0.14902 0.14902 0.14902 C
(-1) [3 10] 0 32.8 23.72 10 /Helvetica SRX
grestore

gsave
0.14902 0.14902 0.14902 C
(-0.5) [3 6 3 10] 0 23.8 64.796 10 /Helvetica SRX
grestore

gsave
0.14902 0.14902 0.14902 C
(0) [10] 0 35.8 105.872 10 /Helvetica SRX
grestore

gsave
0.14902 0.14902 0.14902 C
(0.5) [6 3 10] 0 26.8 146.948 10 /Helvetica SRX
grestore

gsave
0.14902 0.14902 0.14902 C
(1) [10] 0 35.8 188.024 10 /Helvetica SRX
grestore

gsave
0.14902 0.14902 0.14902 C
(1.5) [6 3 10] 0 26.8 229.1 10 /Helvetica SRX
grestore

2 LC
[16 0] 0 setdash
46.8 27.72 LS
325.8 27.72 LE
46.8 233.1 LS
325.8 233.1 LE
46.8 27.72 LS
46.8 233.1 LE
325.8 27.72 LS
325.8 233.1 LE
0 LC
1 LJ
[] 0 setdash
0 1 0 C
46.8 134.028 LS
49.4306 144.268 L
52.0611 153.577 L
54.6917 161.525 L
57.3223 167.752 L
59.9529 171.988 L
62.5834 174.069 L
65.214 173.942 L
67.8446 171.673 L
70.4752 167.438 L
73.1057 161.517 L
75.7363 154.277 L
78.3669 146.156 L
80.9974 137.635 L
83.628 129.214 L
86.2586 121.389 L
88.8892 114.619 L
91.5197 109.308 L
94.1503 105.779 L
96.7809 104.259 L
99.4114 104.866 L
102.042 107.604 L
104.673 112.361 L
107.303 118.914 L
109.934 126.946 L
112.564 136.057 L
115.195 145.788 L
117.825 155.644 L
120.456 165.123 L
123.087 173.739 L
125.717 181.052 L
128.348 186.685 L
130.978 190.352 L
133.609 191.867 L
136.239 191.156 L
138.87 188.262 L
141.501 183.341 L
144.131 176.654 L
146.762 168.553 L
149.392 159.466 L
152.023 149.866 L
154.653 140.256 L
157.284 131.134 L
159.915 122.97 L
162.545 116.182 L
165.176 111.113 L
167.806 108.01 L
170.437 107.016 L
173.067 108.159 L
175.698 111.35 L
178.329 116.391 L
180.959 122.982 L
183.59 130.739 L
186.22 139.216 L
188.851 147.924 L
191.481 156.361 L
194.112 164.037 L
196.743 170.501 L
199.373 175.365 L
202.004 178.324 L
204.634 179.171 L
207.265 177.812 L
209.895 174.267 L
212.526 168.67 L
215.157 161.265 L
217.787 152.388 L
220.418 142.454 L
223.048 131.93 L
225.679 121.316 L
228.309 111.114 L
230.94 101.804 L
233.571 93.8171 L
236.201 87.5123 L
238.832 83.1595 L
241.462 80.9236 L
244.093 80.8563 L
246.723 82.8936 L
249.354 86.8588 L
251.985 92.4725 L
254.615 99.3671 L
257.246 107.106 L
259.876 115.21 L
262.507 123.176 L
265.137 130.511 L
267.768 136.755 L
270.399 141.507 L
273.029 144.442 L
275.66 145.335 L
278.29 144.068 L
280.921 140.64 L
283.551 135.161 L
286.182 127.855 L
288.813 119.042 L
291.443 109.121 L
294.074 98.5521 L
296.704 87.8313 L
299.335 77.462 L
301.965 67.9305 L
304.596 59.6793 L
307.227 53.0841 LE
0 0 1 C
46.8 134.028 LS
49.4306 151.611 L
52.0611 164.791 L
54.6917 173.971 L
57.3223 179.554 L
59.9529 181.943 L
62.5834 181.54 L
65.214 178.748 L
67.8446 173.969 L
70.4752 167.607 L
73.1057 160.065 L
75.7363 151.745 L
78.3669 143.049 L
80.9974 134.381 L
83.628 126.143 L
86.2586 118.738 L
88.8892 112.569 L
91.5197 108.039 L
94.1503 105.55 L
96.7809 105.437 L
99.4114 107.559 L
102.042 111.573 L
104.673 117.136 L
107.303 123.903 L
109.934 131.531 L
112.564 139.675 L
115.195 147.993 L
117.825 156.14 L
120.456 163.783 L
123.087 170.685 L
125.717 176.663 L
128.348 181.533 L
130.978 185.113 L
133.609 187.221 L
136.239 187.672 L
138.87 186.284 L
141.501 182.874 L
144.131 177.291 L
146.762 169.8 L
149.392 160.957 L
152.023 151.324 L
154.653 141.463 L
157.284 131.935 L
159.915 123.303 L
162.545 116.128 L
165.176 110.972 L
167.806 108.371 L
170.437 108.377 L
173.067 110.611 L
175.698 114.68 L
178.329 120.191 L
180.959 126.75 L
183.59 133.964 L
186.22 141.439 L
188.851 148.782 L
191.481 155.604 L
194.112 161.62 L
196.743 166.667 L
199.373 170.589 L
202.004 173.227 L
204.634 174.425 L
207.265 174.025 L
209.895 171.87 L
212.526 167.803 L
215.157 161.673 L
217.787 153.6 L
220.418 144.099 L
223.048 133.713 L
225.679 122.985 L
228.309 112.459 L
230.94 102.678 L
233.571 94.1857 L
236.201 87.525 L
238.832 83.2364 L
241.462 81.5669 L
244.093 82.2278 L
246.723 84.8734 L
249.354 89.1579 L
251.985 94.7356 L
254.615 101.261 L
257.246 108.388 L
259.876 115.771 L
262.507 123.064 L
265.137 129.922 L
267.768 135.998 L
270.399 140.948 L
273.029 144.425 L
275.66 146.084 L
278.29 145.579 L
280.921 142.563 L
283.551 136.693 LE
0 1 1 C
46.8 134.028 LS
49.4306 140.692 L
52.0611 147.652 L
54.6917 154.416 L
57.3223 160.488 L
59.9529 165.406 L
62.5834 168.775 L
65.214 170.303 L
67.8446 169.819 L
70.4752 167.293 L
73.1057 162.835 L
75.7363 156.697 L
78.3669 149.249 L
80.9974 140.961 L
83.628 132.369 L
86.2586 124.037 L
88.8892 116.525 L
91.5197 110.346 L
94.1503 105.933 L
96.7809 103.613 L
99.4114 103.583 L
102.042 105.899 L
104.673 110.472 L
107.303 117.077 L
109.934 125.364 L
112.564 134.884 L
115.195 145.117 L
117.825 155.503 L
120.456 165.476 L
123.087 174.498 L
125.717 182.091 L
128.348 187.858 L
130.978 191.512 L
133.609 192.882 L
136.239 191.923 L
138.87 188.716 L
141.501 183.46 L
144.131 176.456 L
146.762 168.094 L
149.392 158.823 L
152.023 149.135 L
154.653 139.529 L
157.284 130.496 L
159.915 122.485 L
162.545 115.89 L
165.176 111.024 L
167.806 108.109 L
170.437 107.266 L
173.067 108.507 L
175.698 111.738 L
178.329 116.765 L
180.959 123.297 L
183.59 130.967 L
186.22 139.346 L
188.851 147.964 L
191.481 156.334 L
194.112 163.975 L
196.743 170.439 L
199.373 175.332 L
202.004 178.337 L
204.634 179.233 L
207.265 177.906 L
209.895 174.361 L
212.526 168.722 L
215.157 161.228 L
217.787 152.221 L
220.418 142.132 L
223.048 131.453 L
225.679 120.713 L
228.309 110.446 L
230.94 101.161 L
233.571 93.3091 L
236.201 87.2579 L
238.832 83.2681 L
241.462 81.4763 L
244.093 81.8875 L
246.723 84.3744 L
249.354 88.6866 L
251.985 94.4676 L
254.615 101.28 L
257.246 108.635 L
259.876 116.026 L
262.507 122.968 L
265.137 129.026 L
267.768 133.848 L
270.399 137.191 L
273.029 138.934 L
275.66 139.09 L
278.29 137.798 L
280.921 135.314 L
283.551 131.989 L
286.182 128.241 L
288.813 124.519 L
291.443 121.271 L
294.074 118.905 L
296.704 117.753 L
299.335 118.051 L
301.965 119.911 L
304.596 123.314 L
307.227 128.111 LE
2 LC
0 LJ
1 0 0 C
43.8 134.028 LS
49.8 134.028 LE
46.8 137.028 LS
46.8 131.028 LE
67.7143 166.964 LS
73.7143 166.964 LE
70.7143 169.964 LS
70.7143 163.964 LE
91.6286 105.348 LS
97.6286 105.348 LE
94.6286 108.348 LS
94.6286 102.348 LE
115.543 158.287 LS
121.543 158.287 LE
118.543 161.287 LS
118.543 155.287 LE
139.457 181.097 LS
145.457 181.097 LE
142.457 184.097 LS
142.457 178.097 LE
163.371 109.447 LS
169.371 109.447 LE
166.371 112.447 LS
166.371 106.447 LE
187.286 152.591 LS
193.286 152.591 LE
190.286 155.591 LS
190.286 149.591 LE
211.2 164.148 LS
217.2 164.148 LE
214.2 167.148 LS
214.2 161.148 LE
235.114 84.1416 LS
241.114 84.1416 LE
238.114 87.1416 LS
238.114 81.1416 LE
259.029 121.76 LS
265.029 121.76 LE
262.029 124.76 LS
262.029 118.76 LE
282.943 128.587 LS
288.943 128.587 LE
285.943 131.587 LS
285.943 125.587 LE
grestore
gsave
1.0 1.0 scale
newpath 0 0 moveto 360 0 lineto 360 252 lineto 0 252 lineto
closepath clip
1 1 1 C
200.785 222.429 315.129 161.088 200.785 161.088 T
200.785 222.429 315.129 222.429 315.129 161.088 T
0.5 W
2 LC
[16 0] 0 setdash
0.15 0.15 0.15 C
200.785 161.088 LS
315.129 161.088 LE
200.785 222.429 LS
315.129 222.429 LE
200.785 161.088 LS
200.785 222.429 LE
315.129 161.088 LS
315.129 222.429 LE
gsave
0 0 0 C
(sin\(4t+0.3\)cos\(3t-0.1\)) [4 2 5 3 5 3 5 5 2 5 3 5 5 4 3 5 3 3 5 2 5 10] 0 227.017 211.762 9 /Helvetica SRX
grestore

gsave
0 0 0 C
(spline) [4 5 2 2 5 10] 0 227.017 196.426 9 /Helvetica SRX
grestore

gsave
0 0 0 C
(interpft) [2 5 3 5 3 5 3 10] 0 227.017 181.091 9 /Helvetica SRX
grestore

gsave
0 0 0 C
(data) [5 5 3 10] 0 227.017 165.256 9 /Helvetica SRX
grestore

0 LC
1 LJ
[] 0 setdash
0 1 0 C
203.897 214.762 LS
223.905 214.762 LE
0 0 1 C
203.897 199.426 LS
223.905 199.426 LE
0 1 1 C
203.897 184.091 LS
223.905 184.091 LE
2 LC
0 LJ
1 0 0 C
210.901 168.756 LS
216.901 168.756 LE
213.901 171.756 LS
213.901 165.756 LE
grestore
grestore
showpage
cleartomark
%%PageTrailer
%%Trailer
end
%%EOF
