%!PS-Adobe-3.0 EPSF-3.0
%%Title: gl2ps_renderer figure
%%Creator: GL2PS 1.4.0, (C) 1999-2017 C. Geuzaine
%%For: Octave
%%CreationDate: Mon Feb  3 11:35:15 2020
%%LanguageLevel: 3
%%DocumentData: Clean7Bit
%%Pages: 1
%%BoundingBox: 0 0 360 252
%%EndComments
%%BeginProlog
/gl2psdict 64 dict def gl2psdict begin
/tryPS3shading false def % set to false to force subdivision
/rThreshold 0.064 def % red component subdivision threshold
/gThreshold 0.034 def % green component subdivision threshold
/bThreshold 0.1 def % blue component subdivision threshold
/BD { bind def } bind def
/C  { setrgbcolor } BD
/G  { 0.082 mul exch 0.6094 mul add exch 0.3086 mul add neg 1.0 add setgray } BD
/W  { setlinewidth } BD
/LC  { setlinecap } BD
/LJ  { setlinejoin } BD
/FC { findfont exch /SH exch def SH scalefont setfont } BD
/SW { dup stringwidth pop } BD
/S  { FC moveto show } BD
/SBC{ FC moveto SW -2 div 0 rmoveto show } BD
/SBR{ FC moveto SW neg 0 rmoveto show } BD
/SCL{ FC moveto 0 SH -2 div rmoveto show } BD
/SCC{ FC moveto SW -2 div SH -2 div rmoveto show } BD
/SCR{ FC moveto SW neg SH -2 div rmoveto show } BD
/STL{ FC moveto 0 SH neg rmoveto show } BD
/STC{ FC moveto SW -2 div SH neg rmoveto show } BD
/STR{ FC moveto SW neg SH neg rmoveto show } BD
/FCT { FC translate 0 0 } BD
/SR  { gsave FCT moveto rotate show grestore } BD
/SRX  { gsave FCT moveto rotate xshow grestore } BD
/SBCR{ gsave FCT moveto rotate SW -2 div 0 rmoveto show grestore } BD
/SBRR{ gsave FCT moveto rotate SW neg 0 rmoveto show grestore } BD
/SCLR{ gsave FCT moveto rotate 0 SH -2 div rmoveto show grestore} BD
/SCCR{ gsave FCT moveto rotate SW -2 div SH -2 div rmoveto show grestore} BD
/SCRR{ gsave FCT moveto rotate SW neg SH -2 div rmoveto show grestore} BD
/STLR{ gsave FCT moveto rotate 0 SH neg rmoveto show grestore } BD
/STCR{ gsave FCT moveto rotate SW -2 div SH neg rmoveto show grestore } BD
/STRR{ gsave FCT moveto rotate SW neg SH neg rmoveto show grestore } BD
/P  { newpath 0.0 360.0 arc closepath fill } BD
/LS { newpath moveto } BD
/L  { lineto } BD
/LE { lineto stroke } BD
/T  { newpath moveto lineto lineto closepath fill } BD
/STshfill {
      /b1 exch def /g1 exch def /r1 exch def /y1 exch def /x1 exch def
      /b2 exch def /g2 exch def /r2 exch def /y2 exch def /x2 exch def
      /b3 exch def /g3 exch def /r3 exch def /y3 exch def /x3 exch def
      gsave << /ShadingType 4 /ColorSpace [/DeviceRGB]
      /DataSource [ 0 x1 y1 r1 g1 b1 0 x2 y2 r2 g2 b2 0 x3 y3 r3 g3 b3 ] >>
      shfill grestore } BD
/Tm { 3 -1 roll 8 -1 roll 13 -1 roll add add 3 div
      3 -1 roll 7 -1 roll 11 -1 roll add add 3 div
      3 -1 roll 6 -1 roll 9 -1 roll add add 3 div C T } BD
/STsplit {
      4 index 15 index add 0.5 mul
      4 index 15 index add 0.5 mul
      4 index 15 index add 0.5 mul
      4 index 15 index add 0.5 mul
      4 index 15 index add 0.5 mul
      5 copy 5 copy 25 15 roll
      9 index 30 index add 0.5 mul
      9 index 30 index add 0.5 mul
      9 index 30 index add 0.5 mul
      9 index 30 index add 0.5 mul
      9 index 30 index add 0.5 mul
      5 copy 5 copy 35 5 roll 25 5 roll 15 5 roll
      4 index 10 index add 0.5 mul
      4 index 10 index add 0.5 mul
      4 index 10 index add 0.5 mul
      4 index 10 index add 0.5 mul
      4 index 10 index add 0.5 mul
      5 copy 5 copy 40 5 roll 25 5 roll 15 5 roll 25 5 roll
      STnoshfill STnoshfill STnoshfill STnoshfill } BD
/STnoshfill {
      2 index 8 index sub abs rThreshold gt
      { STsplit }
      { 1 index 7 index sub abs gThreshold gt
        { STsplit }
        { dup 6 index sub abs bThreshold gt
          { STsplit }
          { 2 index 13 index sub abs rThreshold gt
            { STsplit }
            { 1 index 12 index sub abs gThreshold gt
              { STsplit }
              { dup 11 index sub abs bThreshold gt
                { STsplit }
                { 7 index 13 index sub abs rThreshold gt
                  { STsplit }
                  { 6 index 12 index sub abs gThreshold gt
                    { STsplit }
                    { 5 index 11 index sub abs bThreshold gt
                      { STsplit }
                      { Tm }
                      ifelse }
                    ifelse }
                  ifelse }
                ifelse }
              ifelse }
            ifelse }
          ifelse }
        ifelse }
      ifelse } BD
tryPS3shading
{ /shfill where
  { /ST { STshfill } BD }
  { /ST { STnoshfill } BD }
  ifelse }
{ /ST { STnoshfill } BD }
ifelse
end
%%EndProlog
%%BeginSetup
/DeviceRGB setcolorspace
gl2psdict begin
%%EndSetup
%%Page: 1 1
%%BeginPageSetup
%%EndPageSetup
mark
gsave
1.0 1.0 scale
1 1 1 C
newpath 0 0 moveto 360 0 lineto 360 252 lineto 0 252 lineto
closepath fill
gsave
1.0 1.0 scale
1 1 1 C
newpath 0 0 moveto 360 0 lineto 360 252 lineto 0 252 lineto
closepath fill
newpath 0 0 moveto 360 0 lineto 360 252 lineto 0 252 lineto
closepath clip
1 1 1 C
46.8 233.1 325.8 27.72 46.8 27.72 T
46.8 233.1 325.8 233.1 325.8 27.72 T
0.5 W
0.15 0.15 0.15 C
46.8 27.72 LS
46.8 30.5152 LE
46.8 233.1 LS
46.8 230.305 LE
91.2042 27.72 LS
91.2042 30.5152 LE
91.2042 233.1 LS
91.2042 230.305 LE
135.608 27.72 LS
135.608 30.5152 LE
135.608 233.1 LS
135.608 230.305 LE
180.013 27.72 LS
180.013 30.5152 LE
180.013 233.1 LS
180.013 230.305 LE
224.417 27.72 LS
224.417 30.5152 LE
224.417 233.1 LS
224.417 230.305 LE
268.821 27.72 LS
268.821 30.5152 LE
268.821 233.1 LS
268.821 230.305 LE
313.225 27.72 LS
313.225 30.5152 LE
313.225 233.1 LS
313.225 230.305 LE
gsave
0.14902 0.14902 0.14902 C
(0) [10] 0 43.8 12.2061 10 /Helvetica SRX
grestore

gsave
0.14902 0.14902 0.14902 C
(1) [10] 0 88.2042 12.2061 10 /Helvetica SRX
grestore

gsave
0.14902 0.14902 0.14902 C
(2) [10] 0 132.608 12.2061 10 /Helvetica SRX
grestore

gsave
0.14902 0.14902 0.14902 C
(3) [10] 0 177.013 12.2061 10 /Helvetica SRX
grestore

gsave
0.14902 0.14902 0.14902 C
(4) [10] 0 221.417 12.2061 10 /Helvetica SRX
grestore

gsave
0.14902 0.14902 0.14902 C
(5) [10] 0 265.821 12.2061 10 /Helvetica SRX
grestore

gsave
0.14902 0.14902 0.14902 C
(6) [10] 0 310.225 12.2061 10 /Helvetica SRX
grestore

46.8 48.258 LS
49.59 48.258 LE
325.8 48.258 LS
323.01 48.258 LE
46.8 89.334 LS
49.59 89.334 LE
325.8 89.334 LS
323.01 89.334 LE
46.8 130.41 LS
49.59 130.41 LE
325.8 130.41 LS
323.01 130.41 LE
46.8 171.486 LS
49.59 171.486 LE
325.8 171.486 LS
323.01 171.486 LE
46.8 212.562 LS
49.59 212.562 LE
325.8 212.562 LS
323.01 212.562 LE
gsave
0.14902 0.14902 0.14902 C
(-2) [3 10] 0 32.8 44.258 10 /Helvetica SRX
grestore

gsave
0.14902 0.14902 0.14902 C
(-1) [3 10] 0 32.8 85.334 10 /Helvetica SRX
grestore

gsave
0.14902 0.14902 0.14902 C
(0) [10] 0 35.8 126.41 10 /Helvetica SRX
grestore

gsave
0.14902 0.14902 0.14902 C
(1) [10] 0 35.8 167.486 10 /Helvetica SRX
grestore

gsave
0.14902 0.14902 0.14902 C
(2) [10] 0 35.8 208.562 10 /Helvetica SRX
grestore

2 LC
[16 0] 0 setdash
46.8 27.72 LS
325.8 27.72 LE
46.8 233.1 LS
325.8 233.1 LE
46.8 27.72 LS
46.8 233.1 LE
325.8 27.72 LS
325.8 233.1 LE
0 0.447 0.741 C
85.2876 179.999 83.7876 179.133 84.7876 179.133 T
85.2876 179.999 83.2876 179.999 83.7876 179.133 T
85.2876 179.999 83.7876 180.865 83.2876 179.999 T
85.2876 179.999 84.7876 180.865 83.7876 180.865 T
85.2876 179.999 85.2876 179.999 84.7876 180.865 T
284.234 52.0936 282.734 51.2276 283.734 51.2276 T
284.234 52.0936 282.234 52.0936 282.734 51.2276 T
284.234 52.0936 282.734 52.9596 282.234 52.0936 T
284.234 52.0936 283.734 52.9596 282.734 52.9596 T
284.234 52.0936 284.234 52.0936 283.734 52.9596 T
260.893 94.8008 259.393 93.9348 260.393 93.9348 T
260.893 94.8008 258.893 94.8008 259.393 93.9348 T
260.893 94.8008 259.393 95.6668 258.893 94.8008 T
260.893 94.8008 260.393 95.6668 259.393 95.6668 T
260.893 94.8008 260.893 94.8008 260.393 95.6668 T
118.964 173.796 117.464 172.929 118.464 172.929 T
118.964 173.796 116.964 173.796 117.464 172.929 T
118.964 173.796 117.464 174.662 116.964 173.796 T
118.964 173.796 118.464 174.662 117.464 174.662 T
118.964 173.796 118.964 173.796 118.464 174.662 T
186.026 125.531 184.526 124.665 185.526 124.665 T
186.026 125.531 184.026 125.531 184.526 124.665 T
186.026 125.531 184.526 126.397 184.026 125.531 T
186.026 125.531 185.526 126.397 184.526 126.397 T
186.026 125.531 186.026 125.531 185.526 126.397 T
173.208 113.077 171.708 112.211 172.708 112.211 T
173.208 113.077 171.208 113.077 171.708 112.211 T
173.208 113.077 171.708 113.943 171.208 113.077 T
173.208 113.077 172.708 113.943 171.708 113.943 T
173.208 113.077 173.208 113.077 172.708 113.943 T
229.594 132.256 228.094 131.39 229.094 131.39 T
229.594 132.256 227.594 132.256 228.094 131.39 T
229.594 132.256 228.094 133.122 227.594 132.256 T
229.594 132.256 229.094 133.122 228.094 133.122 T
229.594 132.256 229.594 132.256 229.094 133.122 T
267.854 75.8184 266.354 74.9523 267.354 74.9523 T
267.854 75.8184 265.854 75.8184 266.354 74.9523 T
267.854 75.8184 266.354 76.6844 265.854 75.8184 T
267.854 75.8184 267.354 76.6844 266.354 76.6844 T
267.854 75.8184 267.854 75.8184 267.354 76.6844 T
73.9868 205.12 72.4868 204.254 73.4868 204.254 T
73.9868 205.12 71.9868 205.12 72.4868 204.254 T
73.9868 205.12 72.4868 205.986 71.9868 205.12 T
73.9868 205.12 73.4868 205.986 72.4868 205.986 T
73.9868 205.12 73.9868 205.12 73.4868 205.986 T
55.709 155.112 54.209 154.246 55.209 154.246 T
55.709 155.112 53.709 155.112 54.209 154.246 T
55.709 155.112 54.209 155.978 53.709 155.112 T
55.709 155.112 55.209 155.978 54.209 155.978 T
55.709 155.112 55.709 155.112 55.209 155.978 T
280.978 59.123 279.478 58.257 280.478 58.257 T
280.978 59.123 278.978 59.123 279.478 58.257 T
280.978 59.123 279.478 59.989 278.978 59.123 T
280.978 59.123 280.478 59.989 279.478 59.989 T
280.978 59.123 280.978 59.123 280.478 59.989 T
168.542 106.966 167.042 106.1 168.042 106.1 T
168.542 106.966 166.542 106.966 167.042 106.1 T
168.542 106.966 167.042 107.832 166.542 106.966 T
168.542 106.966 168.042 107.832 167.042 107.832 T
168.542 106.966 168.542 106.966 168.042 107.832 T
260.476 92.8758 258.976 92.0098 259.976 92.0098 T
260.476 92.8758 258.476 92.8758 258.976 92.0098 T
260.476 92.8758 258.976 93.7419 258.476 92.8758 T
260.476 92.8758 259.976 93.7419 258.976 93.7419 T
260.476 92.8758 260.476 92.8758 259.976 93.7419 T
48.3876 122.02 46.8876 121.154 47.8876 121.154 T
48.3876 122.02 46.3876 122.02 46.8876 121.154 T
48.3876 122.02 46.8876 122.886 46.3876 122.02 T
48.3876 122.02 47.8876 122.886 46.8876 122.886 T
48.3876 122.02 48.3876 122.02 47.8876 122.886 T
172.063 119.083 170.563 118.217 171.563 118.217 T
172.063 119.083 170.063 119.083 170.563 118.217 T
172.063 119.083 170.563 119.949 170.063 119.083 T
172.063 119.083 171.563 119.949 170.563 119.949 T
172.063 119.083 172.063 119.083 171.563 119.949 T
249.11 99.5968 247.61 98.7308 248.61 98.7308 T
249.11 99.5968 247.11 99.5968 247.61 98.7308 T
249.11 99.5968 247.61 100.463 247.11 99.5968 T
249.11 99.5968 248.61 100.463 247.61 100.463 T
249.11 99.5968 249.11 99.5968 248.61 100.463 T
111.625 188.765 110.125 187.899 111.125 187.899 T
111.625 188.765 109.625 188.765 110.125 187.899 T
111.625 188.765 110.125 189.631 109.625 188.765 T
111.625 188.765 111.125 189.631 110.125 189.631 T
111.625 188.765 111.625 188.765 111.125 189.631 T
311.531 89.8046 310.031 88.9385 311.031 88.9385 T
311.531 89.8046 309.531 89.8046 310.031 88.9385 T
311.531 89.8046 310.031 90.6706 309.531 89.8046 T
311.531 89.8046 311.031 90.6706 310.031 90.6706 T
311.531 89.8046 311.531 89.8046 311.031 90.6706 T
299.298 77.7017 297.798 76.8357 298.798 76.8357 T
299.298 77.7017 297.298 77.7017 297.798 76.8357 T
299.298 77.7017 297.798 78.5677 297.298 77.7017 T
299.298 77.7017 298.798 78.5677 297.798 78.5677 T
299.298 77.7017 299.298 77.7017 298.798 78.5677 T
56.3346 152.223 54.8346 151.357 55.8346 151.357 T
56.3346 152.223 54.3346 152.223 54.8346 151.357 T
56.3346 152.223 54.8346 153.089 54.3346 152.223 T
56.3346 152.223 55.8346 153.089 54.8346 153.089 T
56.3346 152.223 56.3346 152.223 55.8346 153.089 T
54.8994 152.019 53.3994 151.153 54.3994 151.153 T
54.8994 152.019 52.8994 152.019 53.3994 151.153 T
54.8994 152.019 53.3994 152.885 52.8994 152.019 T
54.8994 152.019 54.3994 152.885 53.3994 152.885 T
54.8994 152.019 54.8994 152.019 54.3994 152.885 T
198.854 143.017 197.354 142.151 198.354 142.151 T
198.854 143.017 196.854 143.017 197.354 142.151 T
198.854 143.017 197.354 143.883 196.854 143.017 T
198.854 143.017 198.354 143.883 197.354 143.883 T
198.854 143.017 198.854 143.017 198.354 143.883 T
309.823 66.8513 308.323 65.9853 309.323 65.9853 T
309.823 66.8513 307.823 66.8513 308.323 65.9853 T
309.823 66.8513 308.323 67.7174 307.823 66.8513 T
309.823 66.8513 309.323 67.7174 308.323 67.7174 T
309.823 66.8513 309.823 66.8513 309.323 67.7174 T
154.156 113.875 152.656 113.009 153.656 113.009 T
154.156 113.875 152.156 113.875 152.656 113.009 T
154.156 113.875 152.656 114.741 152.156 113.875 T
154.156 113.875 153.656 114.741 152.656 114.741 T
154.156 113.875 154.156 113.875 153.656 114.741 T
108.231 183.97 106.731 183.104 107.731 183.104 T
108.231 183.97 106.231 183.97 106.731 183.104 T
108.231 183.97 106.731 184.836 106.231 183.97 T
108.231 183.97 107.731 184.836 106.731 184.836 T
108.231 183.97 108.231 183.97 107.731 184.836 T
165.571 110.698 164.071 109.832 165.071 109.832 T
165.571 110.698 163.571 110.698 164.071 109.832 T
165.571 110.698 164.071 111.564 163.571 110.698 T
165.571 110.698 165.071 111.564 164.071 111.564 T
165.571 110.698 165.571 110.698 165.071 111.564 T
55.9024 152.15 54.4024 151.284 55.4024 151.284 T
55.9024 152.15 53.9024 152.15 54.4024 151.284 T
55.9024 152.15 54.4024 153.016 53.9024 152.15 T
55.9024 152.15 55.4024 153.016 54.4024 153.016 T
55.9024 152.15 55.9024 152.15 55.4024 153.016 T
109.652 192.179 108.152 191.313 109.152 191.313 T
109.652 192.179 107.652 192.179 108.152 191.313 T
109.652 192.179 108.152 193.045 107.652 192.179 T
109.652 192.179 109.152 193.045 108.152 193.045 T
109.652 192.179 109.652 192.179 109.152 193.045 T
169.971 118.823 168.471 117.956 169.471 117.956 T
169.971 118.823 167.971 118.823 168.471 117.956 T
169.971 118.823 168.471 119.689 167.971 118.823 T
169.971 118.823 169.471 119.689 168.471 119.689 T
169.971 118.823 169.971 118.823 169.471 119.689 T
186.132 127.188 184.632 126.322 185.632 126.322 T
186.132 127.188 184.132 127.188 184.632 126.322 T
186.132 127.188 184.632 128.054 184.132 127.188 T
186.132 127.188 185.632 128.054 184.632 128.054 T
186.132 127.188 186.132 127.188 185.632 128.054 T
112.831 180.864 111.331 179.998 112.331 179.998 T
112.831 180.864 110.831 180.864 111.331 179.998 T
112.831 180.864 111.331 181.73 110.831 180.864 T
112.831 180.864 112.331 181.73 111.331 181.73 T
112.831 180.864 112.831 180.864 112.331 181.73 T
112.212 188.573 110.712 187.707 111.712 187.707 T
112.212 188.573 110.212 188.573 110.712 187.707 T
112.212 188.573 110.712 189.439 110.212 188.573 T
112.212 188.573 111.712 189.439 110.712 189.439 T
112.212 188.573 112.212 188.573 111.712 189.439 T
108.84 183.678 107.34 182.812 108.34 182.812 T
108.84 183.678 106.84 183.678 107.34 182.812 T
108.84 183.678 107.34 184.544 106.84 183.678 T
108.84 183.678 108.34 184.544 107.34 184.544 T
108.84 183.678 108.84 183.678 108.34 184.544 T
176.029 123.332 174.529 122.466 175.529 122.466 T
176.029 123.332 174.029 123.332 174.529 122.466 T
176.029 123.332 174.529 124.198 174.029 123.332 T
176.029 123.332 175.529 124.198 174.529 124.198 T
176.029 123.332 176.029 123.332 175.529 124.198 T
128.649 148.267 127.149 147.401 128.149 147.401 T
128.649 148.267 126.649 148.267 127.149 147.401 T
128.649 148.267 127.149 149.133 126.649 148.267 T
128.649 148.267 128.149 149.133 127.149 149.133 T
128.649 148.267 128.649 148.267 128.149 149.133 T
53.7956 140.879 52.2956 140.013 53.2956 140.013 T
53.7956 140.879 51.7956 140.879 52.2956 140.013 T
53.7956 140.879 52.2956 141.745 51.7956 140.879 T
53.7956 140.879 53.2956 141.745 52.2956 141.745 T
53.7956 140.879 53.7956 140.879 53.2956 141.745 T
281.484 51.0621 279.984 50.1961 280.984 50.1961 T
281.484 51.0621 279.484 51.0621 279.984 50.1961 T
281.484 51.0621 279.984 51.9281 279.484 51.0621 T
281.484 51.0621 280.984 51.9281 279.984 51.9281 T
281.484 51.0621 281.484 51.0621 280.984 51.9281 T
203.051 142.989 201.551 142.123 202.551 142.123 T
203.051 142.989 201.051 142.989 201.551 142.123 T
203.051 142.989 201.551 143.855 201.051 142.989 T
203.051 142.989 202.551 143.855 201.551 143.855 T
203.051 142.989 203.051 142.989 202.551 143.855 T
227 133.086 225.5 132.22 226.5 132.22 T
227 133.086 225 133.086 225.5 132.22 T
227 133.086 225.5 133.952 225 133.086 T
227 133.086 226.5 133.952 225.5 133.952 T
227 133.086 227 133.086 226.5 133.952 T
99.6679 209.774 98.1678 208.908 99.1678 208.908 T
99.6679 209.774 97.6678 209.774 98.1678 208.908 T
99.6679 209.774 98.1678 210.64 97.6678 209.774 T
99.6679 209.774 99.1678 210.64 98.1678 210.64 T
99.6679 209.774 99.6679 209.774 99.1678 210.64 T
324.72 125.497 323.22 124.631 324.22 124.631 T
324.72 125.497 322.72 125.497 323.22 124.631 T
324.72 125.497 323.22 126.363 322.72 125.497 T
324.72 125.497 324.22 126.363 323.22 126.363 T
324.72 125.497 324.72 125.497 324.22 126.363 T
287.725 69.6158 286.225 68.7498 287.225 68.7498 T
287.725 69.6158 285.725 69.6158 286.225 68.7498 T
287.725 69.6158 286.225 70.4818 285.725 69.6158 T
287.725 69.6158 287.225 70.4818 286.225 70.4818 T
287.725 69.6158 287.725 69.6158 287.225 70.4818 T
81.5283 178.54 80.0283 177.674 81.0283 177.674 T
81.5283 178.54 79.5283 178.54 80.0283 177.674 T
81.5283 178.54 80.0283 179.406 79.5283 178.54 T
81.5283 178.54 81.0283 179.406 80.0283 179.406 T
81.5283 178.54 81.5283 178.54 81.0283 179.406 T
140.622 142.653 139.122 141.787 140.122 141.787 T
140.622 142.653 138.622 142.653 139.122 141.787 T
140.622 142.653 139.122 143.519 138.622 142.653 T
140.622 142.653 140.122 143.519 139.122 143.519 T
140.622 142.653 140.622 142.653 140.122 143.519 T
249.094 97.455 247.594 96.589 248.594 96.589 T
249.094 97.455 247.094 97.455 247.594 96.589 T
249.094 97.455 247.594 98.321 247.094 97.455 T
249.094 97.455 248.594 98.321 247.594 98.321 T
249.094 97.455 249.094 97.455 248.594 98.321 T
246.223 109.69 244.723 108.824 245.723 108.824 T
246.223 109.69 244.223 109.69 244.723 108.824 T
246.223 109.69 244.723 110.556 244.223 109.69 T
246.223 109.69 245.723 110.556 244.723 110.556 T
246.223 109.69 246.223 109.69 245.723 110.556 T
309.067 91.0126 307.567 90.1465 308.567 90.1465 T
309.067 91.0126 307.067 91.0126 307.567 90.1465 T
309.067 91.0126 307.567 91.8786 307.067 91.0126 T
309.067 91.0126 308.567 91.8786 307.567 91.8786 T
309.067 91.0126 309.067 91.0126 308.567 91.8786 T
165.568 102.508 164.068 101.642 165.068 101.642 T
165.568 102.508 163.568 102.508 164.068 101.642 T
165.568 102.508 164.068 103.374 163.568 102.508 T
165.568 102.508 165.068 103.374 164.068 103.374 T
165.568 102.508 165.568 102.508 165.068 103.374 T
279.38 51.6263 277.88 50.7602 278.88 50.7602 T
279.38 51.6263 277.38 51.6263 277.88 50.7602 T
279.38 51.6263 277.88 52.4923 277.38 51.6263 T
279.38 51.6263 278.88 52.4923 277.88 52.4923 T
279.38 51.6263 279.38 51.6263 278.88 52.4923 T
234.815 132.774 233.315 131.908 234.315 131.908 T
234.815 132.774 232.815 132.774 233.315 131.908 T
234.815 132.774 233.315 133.64 232.815 132.774 T
234.815 132.774 234.315 133.64 233.315 133.64 T
234.815 132.774 234.815 132.774 234.315 133.64 T
132.44 137.886 130.94 137.02 131.94 137.02 T
132.44 137.886 130.44 137.886 130.94 137.02 T
132.44 137.886 130.94 138.752 130.44 137.886 T
132.44 137.886 131.94 138.752 130.94 138.752 T
132.44 137.886 132.44 137.886 131.94 138.752 T
211.735 129.717 210.235 128.851 211.235 128.851 T
211.735 129.717 209.735 129.717 210.235 128.851 T
211.735 129.717 210.235 130.583 209.735 129.717 T
211.735 129.717 211.235 130.583 210.235 130.583 T
211.735 129.717 211.735 129.717 211.235 130.583 T
294.012 58.2924 292.512 57.4264 293.512 57.4264 T
294.012 58.2924 292.012 58.2924 292.512 57.4264 T
294.012 58.2924 292.512 59.1584 292.012 58.2924 T
294.012 58.2924 293.512 59.1584 292.512 59.1584 T
294.012 58.2924 294.012 58.2924 293.512 59.1584 T
283.889 46.7857 282.389 45.9197 283.389 45.9197 T
283.889 46.7857 281.889 46.7857 282.389 45.9197 T
283.889 46.7857 282.389 47.6517 281.889 46.7857 T
283.889 46.7857 283.389 47.6517 282.389 47.6517 T
283.889 46.7857 283.889 46.7857 283.389 47.6517 T
188.774 124.935 187.274 124.069 188.274 124.069 T
188.774 124.935 186.774 124.935 187.274 124.069 T
188.774 124.935 187.274 125.801 186.774 124.935 T
188.774 124.935 188.274 125.801 187.274 125.801 T
188.774 124.935 188.774 124.935 188.274 125.801 T
212.132 160.657 210.632 159.791 211.632 159.791 T
212.132 160.657 210.132 160.657 210.632 159.791 T
212.132 160.657 210.632 161.523 210.132 160.657 T
212.132 160.657 211.632 161.523 210.632 161.523 T
212.132 160.657 212.132 160.657 211.632 161.523 T
57.4327 145.225 55.9327 144.359 56.9327 144.359 T
57.4327 145.225 55.4327 145.225 55.9327 144.359 T
57.4327 145.225 55.9327 146.091 55.4327 145.225 T
57.4327 145.225 56.9327 146.091 55.9327 146.091 T
57.4327 145.225 57.4327 145.225 56.9327 146.091 T
115.524 184.271 114.024 183.405 115.024 183.405 T
115.524 184.271 113.524 184.271 114.024 183.405 T
115.524 184.271 114.024 185.137 113.524 184.271 T
115.524 184.271 115.024 185.137 114.024 185.137 T
115.524 184.271 115.524 184.271 115.024 185.137 T
270.276 54.4157 268.776 53.5497 269.776 53.5497 T
270.276 54.4157 268.276 54.4157 268.776 53.5497 T
270.276 54.4157 268.776 55.2817 268.276 54.4157 T
270.276 54.4157 269.776 55.2817 268.776 55.2817 T
270.276 54.4157 270.276 54.4157 269.776 55.2817 T
163.394 110.674 161.894 109.808 162.894 109.808 T
163.394 110.674 161.394 110.674 161.894 109.808 T
163.394 110.674 161.894 111.54 161.394 110.674 T
163.394 110.674 162.894 111.54 161.894 111.54 T
163.394 110.674 163.394 110.674 162.894 111.54 T
96.0691 192.85 94.5691 191.984 95.5691 191.984 T
96.0691 192.85 94.0691 192.85 94.5691 191.984 T
96.0691 192.85 94.5691 193.716 94.0691 192.85 T
96.0691 192.85 95.5691 193.716 94.5691 193.716 T
96.0691 192.85 96.0691 192.85 95.5691 193.716 T
200.915 132.316 199.415 131.45 200.415 131.45 T
200.915 132.316 198.915 132.316 199.415 131.45 T
200.915 132.316 199.415 133.182 198.915 132.316 T
200.915 132.316 200.415 133.182 199.415 133.182 T
200.915 132.316 200.915 132.316 200.415 133.182 T
243.948 117.07 242.448 116.204 243.448 116.204 T
243.948 117.07 241.948 117.07 242.448 116.204 T
243.948 117.07 242.448 117.936 241.948 117.07 T
243.948 117.07 243.448 117.936 242.448 117.936 T
243.948 117.07 243.948 117.07 243.448 117.936 T
235.982 120.385 234.482 119.519 235.482 119.519 T
235.982 120.385 233.982 120.385 234.482 119.519 T
235.982 120.385 234.482 121.252 233.982 120.385 T
235.982 120.385 235.482 121.252 234.482 121.252 T
235.982 120.385 235.982 120.385 235.482 121.252 T
152.342 104.356 150.842 103.49 151.842 103.49 T
152.342 104.356 150.342 104.356 150.842 103.49 T
152.342 104.356 150.842 105.222 150.342 104.356 T
152.342 104.356 151.842 105.222 150.842 105.222 T
152.342 104.356 152.342 104.356 151.842 105.222 T
170.27 118.039 168.77 117.173 169.77 117.173 T
170.27 118.039 168.27 118.039 168.77 117.173 T
170.27 118.039 168.77 118.905 168.27 118.039 T
170.27 118.039 169.77 118.905 168.77 118.905 T
170.27 118.039 170.27 118.039 169.77 118.905 T
189.651 124.603 188.151 123.737 189.151 123.737 T
189.651 124.603 187.651 124.603 188.151 123.737 T
189.651 124.603 188.151 125.469 187.651 124.603 T
189.651 124.603 189.151 125.469 188.151 125.469 T
189.651 124.603 189.651 124.603 189.151 125.469 T
264.986 85.5972 263.486 84.7311 264.486 84.7311 T
264.986 85.5972 262.986 85.5972 263.486 84.7311 T
264.986 85.5972 263.486 86.4632 262.986 85.5972 T
264.986 85.5972 264.486 86.4632 263.486 86.4632 T
264.986 85.5972 264.986 85.5972 264.486 86.4632 T
193.142 145.557 191.642 144.691 192.642 144.691 T
193.142 145.557 191.142 145.557 191.642 144.691 T
193.142 145.557 191.642 146.423 191.142 145.557 T
193.142 145.557 192.642 146.423 191.642 146.423 T
193.142 145.557 193.142 145.557 192.642 146.423 T
157.518 133.281 156.018 132.415 157.018 132.415 T
157.518 133.281 155.518 133.281 156.018 132.415 T
157.518 133.281 156.018 134.147 155.518 133.281 T
157.518 133.281 157.018 134.147 156.018 134.147 T
157.518 133.281 157.518 133.281 157.018 134.147 T
184.424 137.244 182.924 136.378 183.924 136.378 T
184.424 137.244 182.424 137.244 182.924 136.378 T
184.424 137.244 182.924 138.11 182.424 137.244 T
184.424 137.244 183.924 138.11 182.924 138.11 T
184.424 137.244 184.424 137.244 183.924 138.11 T
56.0514 146.868 54.5514 146.002 55.5514 146.002 T
56.0514 146.868 54.0514 146.868 54.5514 146.002 T
56.0514 146.868 54.5514 147.734 54.0514 146.868 T
56.0514 146.868 55.5514 147.734 54.5514 147.734 T
56.0514 146.868 56.0514 146.868 55.5514 147.734 T
59.933 161.949 58.433 161.083 59.433 161.083 T
59.933 161.949 57.933 161.949 58.433 161.083 T
59.933 161.949 58.433 162.815 57.933 161.949 T
59.933 161.949 59.433 162.815 58.433 162.815 T
59.933 161.949 59.933 161.949 59.433 162.815 T
244.044 105.687 242.544 104.821 243.544 104.821 T
244.044 105.687 242.044 105.687 242.544 104.821 T
244.044 105.687 242.544 106.553 242.044 105.687 T
244.044 105.687 243.544 106.553 242.544 106.553 T
244.044 105.687 244.044 105.687 243.544 106.553 T
322.109 127.015 320.609 126.149 321.609 126.149 T
322.109 127.015 320.109 127.015 320.609 126.149 T
322.109 127.015 320.609 127.881 320.109 127.015 T
322.109 127.015 321.609 127.881 320.609 127.881 T
322.109 127.015 322.109 127.015 321.609 127.881 T
213.298 149.923 211.798 149.057 212.798 149.057 T
213.298 149.923 211.298 149.923 211.798 149.057 T
213.298 149.923 211.798 150.789 211.298 149.923 T
213.298 149.923 212.798 150.789 211.798 150.789 T
213.298 149.923 213.298 149.923 212.798 150.789 T
157.614 99.6321 156.114 98.7661 157.114 98.7661 T
157.614 99.6321 155.614 99.6321 156.114 98.7661 T
157.614 99.6321 156.114 100.498 155.614 99.6321 T
157.614 99.6321 157.114 100.498 156.114 100.498 T
157.614 99.6321 157.614 99.6321 157.114 100.498 T
95.3274 196.66 93.8274 195.794 94.8274 195.794 T
95.3274 196.66 93.3274 196.66 93.8274 195.794 T
95.3274 196.66 93.8274 197.526 93.3274 196.66 T
95.3274 196.66 94.8274 197.526 93.8274 197.526 T
95.3274 196.66 95.3274 196.66 94.8274 197.526 T
187.925 129.588 186.425 128.722 187.425 128.722 T
187.925 129.588 185.925 129.588 186.425 128.722 T
187.925 129.588 186.425 130.454 185.925 129.588 T
187.925 129.588 187.425 130.454 186.425 130.454 T
187.925 129.588 187.925 129.588 187.425 130.454 T
321.799 124.414 320.299 123.548 321.299 123.548 T
321.799 124.414 319.799 124.414 320.299 123.548 T
321.799 124.414 320.299 125.28 319.799 124.414 T
321.799 124.414 321.299 125.28 320.299 125.28 T
321.799 124.414 321.799 124.414 321.299 125.28 T
262.776 77.1308 261.276 76.2648 262.276 76.2648 T
262.776 77.1308 260.776 77.1308 261.276 76.2648 T
262.776 77.1308 261.276 77.9969 260.776 77.1308 T
262.776 77.1308 262.276 77.9969 261.276 77.9969 T
262.776 77.1308 262.776 77.1308 262.276 77.9969 T
198.353 139.467 196.853 138.601 197.853 138.601 T
198.353 139.467 196.353 139.467 196.853 138.601 T
198.353 139.467 196.853 140.333 196.353 139.467 T
198.353 139.467 197.853 140.333 196.853 140.333 T
198.353 139.467 198.353 139.467 197.853 140.333 T
287.821 47.9816 286.321 47.1156 287.321 47.1156 T
287.821 47.9816 285.821 47.9816 286.321 47.1156 T
287.821 47.9816 286.321 48.8476 285.821 47.9816 T
287.821 47.9816 287.321 48.8476 286.321 48.8476 T
287.821 47.9816 287.821 47.9816 287.321 48.8476 T
112.577 185.867 111.077 185.001 112.077 185.001 T
112.577 185.867 110.577 185.867 111.077 185.001 T
112.577 185.867 111.077 186.733 110.577 185.867 T
112.577 185.867 112.077 186.733 111.077 186.733 T
112.577 185.867 112.577 185.867 112.077 186.733 T
191.142 130.542 189.642 129.676 190.642 129.676 T
191.142 130.542 189.142 130.542 189.642 129.676 T
191.142 130.542 189.642 131.408 189.142 130.542 T
191.142 130.542 190.642 131.408 189.642 131.408 T
191.142 130.542 191.142 130.542 190.642 131.408 T
313.538 94.3777 312.038 93.5117 313.038 93.5117 T
313.538 94.3777 311.538 94.3777 312.038 93.5117 T
313.538 94.3777 312.038 95.2437 311.538 94.3777 T
313.538 94.3777 313.038 95.2437 312.038 95.2437 T
313.538 94.3777 313.538 94.3777 313.038 95.2437 T
209.005 149.792 207.505 148.926 208.505 148.926 T
209.005 149.792 207.005 149.792 207.505 148.926 T
209.005 149.792 207.505 150.658 207.005 149.792 T
209.005 149.792 208.505 150.658 207.505 150.658 T
209.005 149.792 209.005 149.792 208.505 150.658 T
175.898 112.395 174.398 111.529 175.398 111.529 T
175.898 112.395 173.898 112.395 174.398 111.529 T
175.898 112.395 174.398 113.261 173.898 112.395 T
175.898 112.395 175.398 113.261 174.398 113.261 T
175.898 112.395 175.898 112.395 175.398 113.261 T
122.929 148.333 121.429 147.467 122.429 147.467 T
122.929 148.333 120.929 148.333 121.429 147.467 T
122.929 148.333 121.429 149.199 120.929 148.333 T
122.929 148.333 122.429 149.199 121.429 149.199 T
122.929 148.333 122.929 148.333 122.429 149.199 T
200.691 134.624 199.191 133.758 200.191 133.758 T
200.691 134.624 198.691 134.624 199.191 133.758 T
200.691 134.624 199.191 135.49 198.691 134.624 T
200.691 134.624 200.191 135.49 199.191 135.49 T
200.691 134.624 200.691 134.624 200.191 135.49 T
314.835 89.8999 313.335 89.0339 314.335 89.0339 T
314.835 89.8999 312.835 89.8999 313.335 89.0339 T
314.835 89.8999 313.335 90.7659 312.835 89.8999 T
314.835 89.8999 314.335 90.7659 313.335 90.7659 T
314.835 89.8999 314.835 89.8999 314.335 90.7659 T
49.3928 128.601 47.8928 127.735 48.8928 127.735 T
49.3928 128.601 47.3928 128.601 47.8928 127.735 T
49.3928 128.601 47.8928 129.467 47.3928 128.601 T
49.3928 128.601 48.8928 129.467 47.8928 129.467 T
49.3928 128.601 49.3928 128.601 48.8928 129.467 T
266.44 58.1157 264.94 57.2497 265.94 57.2497 T
266.44 58.1157 264.44 58.1157 264.94 57.2497 T
266.44 58.1157 264.94 58.9818 264.44 58.1157 T
266.44 58.1157 265.94 58.9818 264.94 58.9818 T
266.44 58.1157 266.44 58.1157 265.94 58.9818 T
276.716 65.6873 275.216 64.8213 276.216 64.8213 T
276.716 65.6873 274.716 65.6873 275.216 64.8213 T
276.716 65.6873 275.216 66.5533 274.716 65.6873 T
276.716 65.6873 276.216 66.5533 275.216 66.5533 T
276.716 65.6873 276.716 65.6873 276.216 66.5533 T
295.044 61.8396 293.544 60.9735 294.544 60.9735 T
295.044 61.8396 293.044 61.8396 293.544 60.9735 T
295.044 61.8396 293.544 62.7056 293.044 61.8396 T
295.044 61.8396 294.544 62.7056 293.544 62.7056 T
295.044 61.8396 295.044 61.8396 294.544 62.7056 T
254.4 96.7401 252.9 95.8741 253.9 95.8741 T
254.4 96.7401 252.4 96.7401 252.9 95.8741 T
254.4 96.7401 252.9 97.6061 252.4 96.7401 T
254.4 96.7401 253.9 97.6061 252.9 97.6061 T
254.4 96.7401 254.4 96.7401 253.9 97.6061 T
273.55 56.504 272.05 55.638 273.05 55.638 T
273.55 56.504 271.55 56.504 272.05 55.638 T
273.55 56.504 272.05 57.37 271.55 56.504 T
273.55 56.504 273.05 57.37 272.05 57.37 T
273.55 56.504 273.55 56.504 273.05 57.37 T
192.511 142.079 191.011 141.213 192.011 141.213 T
192.511 142.079 190.511 142.079 191.011 141.213 T
192.511 142.079 191.011 142.945 190.511 142.079 T
192.511 142.079 192.011 142.945 191.011 142.945 T
192.511 142.079 192.511 142.079 192.011 142.945 T
204.419 147.14 202.919 146.274 203.919 146.274 T
204.419 147.14 202.419 147.14 202.919 146.274 T
204.419 147.14 202.919 148.006 202.419 147.14 T
204.419 147.14 203.919 148.006 202.919 148.006 T
204.419 147.14 204.419 147.14 203.919 148.006 T
166.679 135.189 165.179 134.323 166.179 134.323 T
166.679 135.189 164.679 135.189 165.179 134.323 T
166.679 135.189 165.179 136.055 164.679 135.189 T
166.679 135.189 166.179 136.055 165.179 136.055 T
166.679 135.189 166.679 135.189 166.179 136.055 T
63.4584 178.898 61.9584 178.032 62.9584 178.032 T
63.4584 178.898 61.4584 178.898 61.9584 178.032 T
63.4584 178.898 61.9584 179.764 61.4584 178.898 T
63.4584 178.898 62.9584 179.764 61.9584 179.764 T
63.4584 178.898 63.4584 178.898 62.9584 179.764 T
290.533 57.0688 289.033 56.2028 290.033 56.2028 T
290.533 57.0688 288.533 57.0688 289.033 56.2028 T
290.533 57.0688 289.033 57.9349 288.533 57.0688 T
290.533 57.0688 290.033 57.9349 289.033 57.9349 T
290.533 57.0688 290.533 57.0688 290.033 57.9349 T
206.83 131.736 205.33 130.87 206.33 130.87 T
206.83 131.736 204.83 131.736 205.33 130.87 T
206.83 131.736 205.33 132.602 204.83 131.736 T
206.83 131.736 206.33 132.602 205.33 132.602 T
206.83 131.736 206.83 131.736 206.33 132.602 T
103.555 191.132 102.055 190.266 103.055 190.266 T
103.555 191.132 101.555 191.132 102.055 190.266 T
103.555 191.132 102.055 191.998 101.555 191.132 T
103.555 191.132 103.055 191.998 102.055 191.998 T
103.555 191.132 103.555 191.132 103.055 191.998 T
188.617 133.546 187.117 132.68 188.117 132.68 T
188.617 133.546 186.617 133.546 187.117 132.68 T
188.617 133.546 187.117 134.412 186.617 133.546 T
188.617 133.546 188.117 134.412 187.117 134.412 T
188.617 133.546 188.617 133.546 188.117 134.412 T
183.094 127.475 181.594 126.609 182.594 126.609 T
183.094 127.475 181.094 127.475 181.594 126.609 T
183.094 127.475 181.594 128.341 181.094 127.475 T
183.094 127.475 182.594 128.341 181.594 128.341 T
183.094 127.475 183.094 127.475 182.594 128.341 T
147.344 118.189 145.844 117.323 146.844 117.323 T
147.344 118.189 145.344 118.189 145.844 117.323 T
147.344 118.189 145.844 119.055 145.344 118.189 T
147.344 118.189 146.844 119.055 145.844 119.055 T
147.344 118.189 147.344 118.189 146.844 119.055 T
144.356 127.097 142.856 126.231 143.856 126.231 T
144.356 127.097 142.356 127.097 142.856 126.231 T
144.356 127.097 142.856 127.963 142.356 127.097 T
144.356 127.097 143.856 127.963 142.856 127.963 T
144.356 127.097 144.356 127.097 143.856 127.963 T
198.036 134.687 196.536 133.821 197.536 133.821 T
198.036 134.687 196.036 134.687 196.536 133.821 T
198.036 134.687 196.536 135.553 196.036 134.687 T
198.036 134.687 197.536 135.553 196.536 135.553 T
198.036 134.687 198.036 134.687 197.536 135.553 T
221.754 148.738 220.254 147.872 221.254 147.872 T
221.754 148.738 219.754 148.738 220.254 147.872 T
221.754 148.738 220.254 149.604 219.754 148.738 T
221.754 148.738 221.254 149.604 220.254 149.604 T
221.754 148.738 221.754 148.738 221.254 149.604 T
218.674 152.908 217.174 152.042 218.174 152.042 T
218.674 152.908 216.674 152.908 217.174 152.042 T
218.674 152.908 217.174 153.774 216.674 152.908 T
218.674 152.908 218.174 153.774 217.174 153.774 T
218.674 152.908 218.674 152.908 218.174 153.774 T
175.623 103.209 174.123 102.343 175.123 102.343 T
175.623 103.209 173.623 103.209 174.123 102.343 T
175.623 103.209 174.123 104.075 173.623 103.209 T
175.623 103.209 175.123 104.075 174.123 104.075 T
175.623 103.209 175.623 103.209 175.123 104.075 T
55.605 150.828 54.105 149.962 55.105 149.962 T
55.605 150.828 53.605 150.828 54.105 149.962 T
55.605 150.828 54.105 151.694 53.605 150.828 T
55.605 150.828 55.105 151.694 54.105 151.694 T
55.605 150.828 55.605 150.828 55.105 151.694 T
111.86 166.795 110.36 165.929 111.36 165.929 T
111.86 166.795 109.86 166.795 110.36 165.929 T
111.86 166.795 110.36 167.661 109.86 166.795 T
111.86 166.795 111.36 167.661 110.36 167.661 T
111.86 166.795 111.86 166.795 111.36 167.661 T
97.242 197.36 95.742 196.494 96.742 196.494 T
97.242 197.36 95.242 197.36 95.742 196.494 T
97.242 197.36 95.742 198.226 95.242 197.36 T
97.242 197.36 96.742 198.226 95.742 198.226 T
97.242 197.36 97.242 197.36 96.742 198.226 T
210.865 162.466 209.365 161.6 210.365 161.6 T
210.865 162.466 208.865 162.466 209.365 161.6 T
210.865 162.466 209.365 163.332 208.865 162.466 T
210.865 162.466 210.365 163.332 209.365 163.332 T
210.865 162.466 210.865 162.466 210.365 163.332 T
288.021 57.2095 286.521 56.3434 287.521 56.3434 T
288.021 57.2095 286.021 57.2095 286.521 56.3434 T
288.021 57.2095 286.521 58.0755 286.021 57.2095 T
288.021 57.2095 287.521 58.0755 286.521 58.0755 T
288.021 57.2095 288.021 57.2095 287.521 58.0755 T
270.564 64.2882 269.064 63.4222 270.064 63.4222 T
270.564 64.2882 268.564 64.2882 269.064 63.4222 T
270.564 64.2882 269.064 65.1543 268.564 64.2882 T
270.564 64.2882 270.064 65.1543 269.064 65.1543 T
270.564 64.2882 270.564 64.2882 270.064 65.1543 T
270.19 70.5461 268.69 69.6801 269.69 69.6801 T
270.19 70.5461 268.19 70.5461 268.69 69.6801 T
270.19 70.5461 268.69 71.4122 268.19 70.5461 T
270.19 70.5461 269.69 71.4122 268.69 71.4122 T
270.19 70.5461 270.19 70.5461 269.69 71.4122 T
275.586 60.5943 274.086 59.7283 275.086 59.7283 T
275.586 60.5943 273.586 60.5943 274.086 59.7283 T
275.586 60.5943 274.086 61.4603 273.586 60.5943 T
275.586 60.5943 275.086 61.4603 274.086 61.4603 T
275.586 60.5943 275.586 60.5943 275.086 61.4603 T
119.027 180.696 117.527 179.83 118.527 179.83 T
119.027 180.696 117.027 180.696 117.527 179.83 T
119.027 180.696 117.527 181.562 117.027 180.696 T
119.027 180.696 118.527 181.562 117.527 181.562 T
119.027 180.696 119.027 180.696 118.527 181.562 T
282.647 65.0669 281.147 64.2009 282.147 64.2009 T
282.647 65.0669 280.647 65.0669 281.147 64.2009 T
282.647 65.0669 281.147 65.9329 280.647 65.0669 T
282.647 65.0669 282.147 65.9329 281.147 65.9329 T
282.647 65.0669 282.647 65.0669 282.147 65.9329 T
235.599 122.534 234.099 121.668 235.099 121.668 T
235.599 122.534 233.599 122.534 234.099 121.668 T
235.599 122.534 234.099 123.4 233.599 122.534 T
235.599 122.534 235.099 123.4 234.099 123.4 T
235.599 122.534 235.599 122.534 235.099 123.4 T
71.0223 195.101 69.5223 194.235 70.5223 194.235 T
71.0223 195.101 69.0223 195.101 69.5223 194.235 T
71.0223 195.101 69.5223 195.967 69.0223 195.101 T
71.0223 195.101 70.5223 195.967 69.5223 195.967 T
71.0223 195.101 71.0223 195.101 70.5223 195.967 T
52.4567 142.133 50.9567 141.267 51.9567 141.267 T
52.4567 142.133 50.4567 142.133 50.9567 141.267 T
52.4567 142.133 50.9567 142.999 50.4567 142.133 T
52.4567 142.133 51.9567 142.999 50.9567 142.999 T
52.4567 142.133 52.4567 142.133 51.9567 142.999 T
51.8622 144.733 50.3622 143.867 51.3622 143.867 T
51.8622 144.733 49.8622 144.733 50.3622 143.867 T
51.8622 144.733 50.3622 145.599 49.8622 144.733 T
51.8622 144.733 51.3622 145.599 50.3622 145.599 T
51.8622 144.733 51.8622 144.733 51.3622 145.599 T
258.609 85.7758 257.109 84.9098 258.109 84.9098 T
258.609 85.7758 256.609 85.7758 257.109 84.9098 T
258.609 85.7758 257.109 86.6418 256.609 85.7758 T
258.609 85.7758 258.109 86.6418 257.109 86.6418 T
258.609 85.7758 258.609 85.7758 258.109 86.6418 T
117.427 168.933 115.927 168.067 116.927 168.067 T
117.427 168.933 115.427 168.933 115.927 168.067 T
117.427 168.933 115.927 169.799 115.427 168.933 T
117.427 168.933 116.927 169.799 115.927 169.799 T
117.427 168.933 117.427 168.933 116.927 169.799 T
78.3473 201.317 76.8473 200.451 77.8473 200.451 T
78.3473 201.317 76.3473 201.317 76.8473 200.451 T
78.3473 201.317 76.8473 202.183 76.3473 201.317 T
78.3473 201.317 77.8473 202.183 76.8473 202.183 T
78.3473 201.317 78.3473 201.317 77.8473 202.183 T
222.12 134.466 220.62 133.6 221.62 133.6 T
222.12 134.466 220.12 134.466 220.62 133.6 T
222.12 134.466 220.62 135.332 220.12 134.466 T
222.12 134.466 221.62 135.332 220.62 135.332 T
222.12 134.466 222.12 134.466 221.62 135.332 T
143.894 135.205 142.394 134.339 143.394 134.339 T
143.894 135.205 141.894 135.205 142.394 134.339 T
143.894 135.205 142.394 136.071 141.894 135.205 T
143.894 135.205 143.394 136.071 142.394 136.071 T
143.894 135.205 143.894 135.205 143.394 136.071 T
67.1948 181.018 65.6948 180.152 66.6948 180.152 T
67.1948 181.018 65.1948 181.018 65.6948 180.152 T
67.1948 181.018 65.6948 181.884 65.1948 181.018 T
67.1948 181.018 66.6948 181.884 65.6948 181.884 T
67.1948 181.018 67.1948 181.018 66.6948 181.884 T
92.3355 195.541 90.8355 194.675 91.8355 194.675 T
92.3355 195.541 90.3355 195.541 90.8355 194.675 T
92.3355 195.541 90.8355 196.407 90.3355 195.541 T
92.3355 195.541 91.8355 196.407 90.8355 196.407 T
92.3355 195.541 92.3355 195.541 91.8355 196.407 T
194.939 154.063 193.439 153.197 194.439 153.197 T
194.939 154.063 192.939 154.063 193.439 153.197 T
194.939 154.063 193.439 154.929 192.939 154.063 T
194.939 154.063 194.439 154.929 193.439 154.929 T
194.939 154.063 194.939 154.063 194.439 154.929 T
94.7124 209.377 93.2124 208.511 94.2124 208.511 T
94.7124 209.377 92.7124 209.377 93.2124 208.511 T
94.7124 209.377 93.2124 210.243 92.7124 209.377 T
94.7124 209.377 94.2124 210.243 93.2124 210.243 T
94.7124 209.377 94.7124 209.377 94.2124 210.243 T
123.943 153.836 122.443 152.97 123.443 152.97 T
123.943 153.836 121.943 153.836 122.443 152.97 T
123.943 153.836 122.443 154.702 121.943 153.836 T
123.943 153.836 123.443 154.702 122.443 154.702 T
123.943 153.836 123.943 153.836 123.443 154.702 T
246.334 100.059 244.834 99.1933 245.834 99.1933 T
246.334 100.059 244.334 100.059 244.834 99.1933 T
246.334 100.059 244.834 100.925 244.334 100.059 T
246.334 100.059 245.834 100.925 244.834 100.925 T
246.334 100.059 246.334 100.059 245.834 100.925 T
174.662 115.84 173.162 114.974 174.162 114.974 T
174.662 115.84 172.662 115.84 173.162 114.974 T
174.662 115.84 173.162 116.706 172.662 115.84 T
174.662 115.84 174.162 116.706 173.162 116.706 T
174.662 115.84 174.662 115.84 174.162 116.706 T
137.639 137.15 136.138 136.284 137.139 136.284 T
137.639 137.15 135.639 137.15 136.138 136.284 T
137.639 137.15 136.138 138.016 135.639 137.15 T
137.639 137.15 137.139 138.016 136.138 138.016 T
137.639 137.15 137.639 137.15 137.139 138.016 T
179.982 118.615 178.482 117.749 179.482 117.749 T
179.982 118.615 177.982 118.615 178.482 117.749 T
179.982 118.615 178.482 119.481 177.982 118.615 T
179.982 118.615 179.482 119.481 178.482 119.481 T
179.982 118.615 179.982 118.615 179.482 119.481 T
54.3941 150.747 52.8941 149.881 53.894 149.881 T
54.3941 150.747 52.394 150.747 52.8941 149.881 T
54.3941 150.747 52.8941 151.613 52.394 150.747 T
54.3941 150.747 53.894 151.613 52.8941 151.613 T
54.3941 150.747 54.3941 150.747 53.894 151.613 T
155.649 111.992 154.149 111.126 155.149 111.126 T
155.649 111.992 153.649 111.992 154.149 111.126 T
155.649 111.992 154.149 112.858 153.649 111.992 T
155.649 111.992 155.149 112.858 154.149 112.858 T
155.649 111.992 155.649 111.992 155.149 112.858 T
165.236 105.617 163.736 104.751 164.736 104.751 T
165.236 105.617 163.236 105.617 163.736 104.751 T
165.236 105.617 163.736 106.483 163.236 105.617 T
165.236 105.617 164.736 106.483 163.736 106.483 T
165.236 105.617 165.236 105.617 164.736 106.483 T
100.263 201.485 98.763 200.619 99.763 200.619 T
100.263 201.485 98.263 201.485 98.763 200.619 T
100.263 201.485 98.763 202.351 98.263 201.485 T
100.263 201.485 99.763 202.351 98.763 202.351 T
100.263 201.485 100.263 201.485 99.763 202.351 T
78.1445 189.11 76.6445 188.244 77.6445 188.244 T
78.1445 189.11 76.1445 189.11 76.6445 188.244 T
78.1445 189.11 76.6445 189.976 76.1445 189.11 T
78.1445 189.11 77.6445 189.976 76.6445 189.976 T
78.1445 189.11 78.1445 189.11 77.6445 189.976 T
298.849 67.2027 297.349 66.3367 298.349 66.3367 T
298.849 67.2027 296.849 67.2027 297.349 66.3367 T
298.849 67.2027 297.349 68.0687 296.849 67.2027 T
298.849 67.2027 298.349 68.0687 297.349 68.0687 T
298.849 67.2027 298.849 67.2027 298.349 68.0687 T
190.122 144.454 188.622 143.588 189.622 143.588 T
190.122 144.454 188.122 144.454 188.622 143.588 T
190.122 144.454 188.622 145.32 188.122 144.454 T
190.122 144.454 189.622 145.32 188.622 145.32 T
190.122 144.454 190.122 144.454 189.622 145.32 T
106.136 208.493 104.636 207.627 105.636 207.627 T
106.136 208.493 104.136 208.493 104.636 207.627 T
106.136 208.493 104.636 209.359 104.136 208.493 T
106.136 208.493 105.636 209.359 104.636 209.359 T
106.136 208.493 106.136 208.493 105.636 209.359 T
216.776 134.52 215.276 133.654 216.276 133.654 T
216.776 134.52 214.776 134.52 215.276 133.654 T
216.776 134.52 215.276 135.386 214.776 134.52 T
216.776 134.52 216.276 135.386 215.276 135.386 T
216.776 134.52 216.776 134.52 216.276 135.386 T
275.754 63.5831 274.254 62.7171 275.254 62.7171 T
275.754 63.5831 273.754 63.5831 274.254 62.7171 T
275.754 63.5831 274.254 64.4491 273.754 63.5831 T
275.754 63.5831 275.254 64.4491 274.254 64.4491 T
275.754 63.5831 275.754 63.5831 275.254 64.4491 T
53.6082 124.807 52.1082 123.94 53.1082 123.94 T
53.6082 124.807 51.6082 124.807 52.1082 123.94 T
53.6082 124.807 52.1082 125.673 51.6082 124.807 T
53.6082 124.807 53.1082 125.673 52.1082 125.673 T
53.6082 124.807 53.6082 124.807 53.1082 125.673 T
52.7842 148.551 51.2842 147.685 52.2842 147.685 T
52.7842 148.551 50.7842 148.551 51.2842 147.685 T
52.7842 148.551 51.2842 149.417 50.7842 148.551 T
52.7842 148.551 52.2842 149.417 51.2842 149.417 T
52.7842 148.551 52.7842 148.551 52.2842 149.417 T
88.6628 207.839 87.1628 206.973 88.1628 206.973 T
88.6628 207.839 86.6628 207.839 87.1628 206.973 T
88.6628 207.839 87.1628 208.705 86.6628 207.839 T
88.6628 207.839 88.1628 208.705 87.1628 208.705 T
88.6628 207.839 88.6628 207.839 88.1628 208.705 T
248.355 125.726 246.855 124.86 247.855 124.86 T
248.355 125.726 246.355 125.726 246.855 124.86 T
248.355 125.726 246.855 126.592 246.355 125.726 T
248.355 125.726 247.855 126.592 246.855 126.592 T
248.355 125.726 248.355 125.726 247.855 126.592 T
92.5035 197.758 91.0035 196.892 92.0035 196.892 T
92.5035 197.758 90.5035 197.758 91.0035 196.892 T
92.5035 197.758 91.0035 198.624 90.5035 197.758 T
92.5035 197.758 92.0035 198.624 91.0035 198.624 T
92.5035 197.758 92.5035 197.758 92.0035 198.624 T
244.385 105.673 242.885 104.807 243.885 104.807 T
244.385 105.673 242.385 105.673 242.885 104.807 T
244.385 105.673 242.885 106.539 242.385 105.673 T
244.385 105.673 243.885 106.539 242.885 106.539 T
244.385 105.673 244.385 105.673 243.885 106.539 T
237.011 103.742 235.511 102.876 236.511 102.876 T
237.011 103.742 235.011 103.742 235.511 102.876 T
237.011 103.742 235.511 104.608 235.011 103.742 T
237.011 103.742 236.511 104.608 235.511 104.608 T
237.011 103.742 237.011 103.742 236.511 104.608 T
199.772 150.261 198.272 149.395 199.272 149.395 T
199.772 150.261 197.772 150.261 198.272 149.395 T
199.772 150.261 198.272 151.127 197.772 150.261 T
199.772 150.261 199.272 151.127 198.272 151.127 T
199.772 150.261 199.772 150.261 199.272 151.127 T
109.347 173.467 107.847 172.601 108.847 172.601 T
109.347 173.467 107.347 173.467 107.847 172.601 T
109.347 173.467 107.847 174.333 107.347 173.467 T
109.347 173.467 108.847 174.333 107.847 174.333 T
109.347 173.467 109.347 173.467 108.847 174.333 T
319.991 120.964 318.491 120.098 319.491 120.098 T
319.991 120.964 317.991 120.964 318.491 120.098 T
319.991 120.964 318.491 121.83 317.991 120.964 T
319.991 120.964 319.491 121.83 318.491 121.83 T
319.991 120.964 319.991 120.964 319.491 121.83 T
270.389 64.6217 268.889 63.7557 269.889 63.7557 T
270.389 64.6217 268.389 64.6217 268.889 63.7557 T
270.389 64.6217 268.889 65.4877 268.389 64.6217 T
270.389 64.6217 269.889 65.4877 268.889 65.4877 T
270.389 64.6217 270.389 64.6217 269.889 65.4877 T
191.931 133.202 190.431 132.336 191.431 132.336 T
191.931 133.202 189.931 133.202 190.431 132.336 T
191.931 133.202 190.431 134.068 189.931 133.202 T
191.931 133.202 191.431 134.068 190.431 134.068 T
191.931 133.202 191.931 133.202 191.431 134.068 T
110.072 186.877 108.572 186.011 109.572 186.011 T
110.072 186.877 108.072 186.877 108.572 186.011 T
110.072 186.877 108.572 187.743 108.072 186.877 T
110.072 186.877 109.572 187.743 108.572 187.743 T
110.072 186.877 110.072 186.877 109.572 187.743 T
228.733 141.684 227.233 140.818 228.233 140.818 T
228.733 141.684 226.733 141.684 227.233 140.818 T
228.733 141.684 227.233 142.55 226.733 141.684 T
228.733 141.684 228.233 142.55 227.233 142.55 T
228.733 141.684 228.733 141.684 228.233 142.55 T
157.977 120.809 156.477 119.943 157.477 119.943 T
157.977 120.809 155.977 120.809 156.477 119.943 T
157.977 120.809 156.477 121.675 155.977 120.809 T
157.977 120.809 157.477 121.675 156.477 121.675 T
157.977 120.809 157.977 120.809 157.477 121.675 T
208.461 143.666 206.961 142.8 207.961 142.8 T
208.461 143.666 206.461 143.666 206.961 142.8 T
208.461 143.666 206.961 144.532 206.461 143.666 T
208.461 143.666 207.961 144.532 206.961 144.532 T
208.461 143.666 208.461 143.666 207.961 144.532 T
137.428 128.664 135.928 127.798 136.928 127.798 T
137.428 128.664 135.428 128.664 135.928 127.798 T
137.428 128.664 135.928 129.53 135.428 128.664 T
137.428 128.664 136.928 129.53 135.928 129.53 T
137.428 128.664 137.428 128.664 136.928 129.53 T
223.834 143.998 222.334 143.132 223.334 143.132 T
223.834 143.998 221.834 143.998 222.334 143.132 T
223.834 143.998 222.334 144.864 221.834 143.998 T
223.834 143.998 223.334 144.864 222.334 144.864 T
223.834 143.998 223.834 143.998 223.334 144.864 T
64.201 164.593 62.701 163.727 63.701 163.727 T
64.201 164.593 62.201 164.593 62.701 163.727 T
64.201 164.593 62.701 165.459 62.201 164.593 T
64.201 164.593 63.701 165.459 62.701 165.459 T
64.201 164.593 64.201 164.593 63.701 165.459 T
131.111 150.102 129.611 149.236 130.611 149.236 T
131.111 150.102 129.111 150.102 129.611 149.236 T
131.111 150.102 129.611 150.968 129.111 150.102 T
131.111 150.102 130.611 150.968 129.611 150.968 T
131.111 150.102 131.111 150.102 130.611 150.968 T
317.845 111.332 316.345 110.466 317.345 110.466 T
317.845 111.332 315.845 111.332 316.345 110.466 T
317.845 111.332 316.345 112.198 315.845 111.332 T
317.845 111.332 317.345 112.198 316.345 112.198 T
317.845 111.332 317.845 111.332 317.345 112.198 T
292.074 63.6774 290.574 62.8113 291.574 62.8113 T
292.074 63.6774 290.074 63.6774 290.574 62.8113 T
292.074 63.6774 290.574 64.5434 290.074 63.6774 T
292.074 63.6774 291.574 64.5434 290.574 64.5434 T
292.074 63.6774 292.074 63.6774 291.574 64.5434 T
133.282 142.568 131.782 141.702 132.782 141.702 T
133.282 142.568 131.282 142.568 131.782 141.702 T
133.282 142.568 131.782 143.434 131.282 142.568 T
133.282 142.568 132.782 143.434 131.782 143.434 T
133.282 142.568 133.282 142.568 132.782 143.434 T
287.326 58.2184 285.826 57.3523 286.826 57.3523 T
287.326 58.2184 285.326 58.2184 285.826 57.3523 T
287.326 58.2184 285.826 59.0844 285.326 58.2184 T
287.326 58.2184 286.826 59.0844 285.826 59.0844 T
287.326 58.2184 287.326 58.2184 286.826 59.0844 T
134.391 128.275 132.891 127.409 133.891 127.409 T
134.391 128.275 132.391 128.275 132.891 127.409 T
134.391 128.275 132.891 129.141 132.391 128.275 T
134.391 128.275 133.891 129.141 132.891 129.141 T
134.391 128.275 134.391 128.275 133.891 129.141 T
309.862 91.2914 308.362 90.4254 309.361 90.4254 T
309.862 91.2914 307.861 91.2914 308.362 90.4254 T
309.862 91.2914 308.362 92.1574 307.861 91.2914 T
309.862 91.2914 309.361 92.1574 308.362 92.1574 T
309.862 91.2914 309.862 91.2914 309.361 92.1574 T
255.332 94.8996 253.832 94.0336 254.832 94.0336 T
255.332 94.8996 253.332 94.8996 253.832 94.0336 T
255.332 94.8996 253.832 95.7656 253.332 94.8996 T
255.332 94.8996 254.832 95.7656 253.832 95.7656 T
255.332 94.8996 255.332 94.8996 254.832 95.7656 T
163.912 92.7153 162.412 91.8493 163.412 91.8493 T
163.912 92.7153 161.912 92.7153 162.412 91.8493 T
163.912 92.7153 162.412 93.5814 161.912 92.7153 T
163.912 92.7153 163.412 93.5814 162.412 93.5814 T
163.912 92.7153 163.912 92.7153 163.412 93.5814 T
118.208 186.138 116.708 185.272 117.708 185.272 T
118.208 186.138 116.208 186.138 116.708 185.272 T
118.208 186.138 116.708 187.005 116.208 186.138 T
118.208 186.138 117.708 187.005 116.708 187.005 T
118.208 186.138 118.208 186.138 117.708 187.005 T
50.166 150.678 48.666 149.812 49.666 149.812 T
50.166 150.678 48.166 150.678 48.666 149.812 T
50.166 150.678 48.666 151.544 48.166 150.678 T
50.166 150.678 49.666 151.544 48.666 151.544 T
50.166 150.678 50.166 150.678 49.666 151.544 T
292.962 62.3529 291.462 61.4869 292.462 61.4869 T
292.962 62.3529 290.962 62.3529 291.462 61.4869 T
292.962 62.3529 291.462 63.2189 290.962 62.3529 T
292.962 62.3529 292.462 63.2189 291.462 63.2189 T
292.962 62.3529 292.962 62.3529 292.462 63.2189 T
58.3787 166.095 56.8787 165.229 57.8787 165.229 T
58.3787 166.095 56.3787 166.095 56.8787 165.229 T
58.3787 166.095 56.8787 166.961 56.3787 166.095 T
58.3787 166.095 57.8787 166.961 56.8787 166.961 T
58.3787 166.095 58.3787 166.095 57.8787 166.961 T
276.417 73.2 274.917 72.334 275.917 72.334 T
276.417 73.2 274.417 73.2 274.917 72.334 T
276.417 73.2 274.917 74.066 274.417 73.2 T
276.417 73.2 275.917 74.066 274.917 74.066 T
276.417 73.2 276.417 73.2 275.917 74.066 T
316.254 96.1955 314.754 95.3294 315.754 95.3294 T
316.254 96.1955 314.254 96.1955 314.754 95.3294 T
316.254 96.1955 314.754 97.0615 314.254 96.1955 T
316.254 96.1955 315.754 97.0615 314.754 97.0615 T
316.254 96.1955 316.254 96.1955 315.754 97.0615 T
206.908 156.23 205.408 155.364 206.408 155.364 T
206.908 156.23 204.908 156.23 205.408 155.364 T
206.908 156.23 205.408 157.096 204.908 156.23 T
206.908 156.23 206.408 157.096 205.408 157.096 T
206.908 156.23 206.908 156.23 206.408 157.096 T
95.6533 194.152 94.1533 193.286 95.1533 193.286 T
95.6533 194.152 93.6533 194.152 94.1533 193.286 T
95.6533 194.152 94.1533 195.018 93.6533 194.152 T
95.6533 194.152 95.1533 195.018 94.1533 195.018 T
95.6533 194.152 95.6533 194.152 95.1533 195.018 T
289.911 62.7302 288.411 61.8642 289.411 61.8642 T
289.911 62.7302 287.911 62.7302 288.411 61.8642 T
289.911 62.7302 288.411 63.5962 287.911 62.7302 T
289.911 62.7302 289.411 63.5962 288.411 63.5962 T
289.911 62.7302 289.911 62.7302 289.411 63.5962 T
319.483 112.832 317.983 111.966 318.983 111.966 T
319.483 112.832 317.483 112.832 317.983 111.966 T
319.483 112.832 317.983 113.698 317.483 112.832 T
319.483 112.832 318.983 113.698 317.983 113.698 T
319.483 112.832 319.483 112.832 318.983 113.698 T
244.222 116.939 242.722 116.073 243.722 116.073 T
244.222 116.939 242.222 116.939 242.722 116.073 T
244.222 116.939 242.722 117.805 242.222 116.939 T
244.222 116.939 243.722 117.805 242.722 117.805 T
244.222 116.939 244.222 116.939 243.722 117.805 T
189.776 135.043 188.276 134.177 189.276 134.177 T
189.776 135.043 187.776 135.043 188.276 134.177 T
189.776 135.043 188.276 135.909 187.776 135.043 T
189.776 135.043 189.276 135.909 188.276 135.909 T
189.776 135.043 189.776 135.043 189.276 135.909 T
153.253 116.985 151.753 116.119 152.753 116.119 T
153.253 116.985 151.253 116.985 151.753 116.119 T
153.253 116.985 151.753 117.851 151.253 116.985 T
153.253 116.985 152.753 117.851 151.753 117.851 T
153.253 116.985 153.253 116.985 152.753 117.851 T
144.594 113.757 143.094 112.891 144.094 112.891 T
144.594 113.757 142.594 113.757 143.094 112.891 T
144.594 113.757 143.094 114.623 142.594 113.757 T
144.594 113.757 144.094 114.623 143.094 114.623 T
144.594 113.757 144.594 113.757 144.094 114.623 T
105.208 193.081 103.708 192.215 104.708 192.215 T
105.208 193.081 103.208 193.081 103.708 192.215 T
105.208 193.081 103.708 193.947 103.208 193.081 T
105.208 193.081 104.708 193.947 103.708 193.947 T
105.208 193.081 105.208 193.081 104.708 193.947 T
235.889 118.996 234.389 118.13 235.389 118.13 T
235.889 118.996 233.889 118.996 234.389 118.13 T
235.889 118.996 234.389 119.862 233.889 118.996 T
235.889 118.996 235.389 119.862 234.389 119.862 T
235.889 118.996 235.889 118.996 235.389 119.862 T
168.593 110.312 167.093 109.446 168.093 109.446 T
168.593 110.312 166.593 110.312 167.093 109.446 T
168.593 110.312 167.093 111.178 166.593 110.312 T
168.593 110.312 168.093 111.178 167.093 111.178 T
168.593 110.312 168.593 110.312 168.093 111.178 T
101.959 198.308 100.459 197.442 101.459 197.442 T
101.959 198.308 99.9591 198.308 100.459 197.442 T
101.959 198.308 100.459 199.174 99.9591 198.308 T
101.959 198.308 101.459 199.174 100.459 199.174 T
101.959 198.308 101.959 198.308 101.459 199.174 T
76.9344 186.308 75.4344 185.442 76.4343 185.442 T
76.9344 186.308 74.9344 186.308 75.4344 185.442 T
76.9344 186.308 75.4344 187.174 74.9344 186.308 T
76.9344 186.308 76.4343 187.174 75.4344 187.174 T
76.9344 186.308 76.9344 186.308 76.4343 187.174 T
233.602 136.498 232.102 135.632 233.102 135.632 T
233.602 136.498 231.602 136.498 232.102 135.632 T
233.602 136.498 232.102 137.364 231.602 136.498 T
233.602 136.498 233.102 137.364 232.102 137.364 T
233.602 136.498 233.602 136.498 233.102 137.364 T
130.404 154.559 128.904 153.693 129.904 153.693 T
130.404 154.559 128.404 154.559 128.904 153.693 T
130.404 154.559 128.904 155.425 128.404 154.559 T
130.404 154.559 129.904 155.425 128.904 155.425 T
130.404 154.559 130.404 154.559 129.904 155.425 T
187.244 129.263 185.744 128.397 186.744 128.397 T
187.244 129.263 185.244 129.263 185.744 128.397 T
187.244 129.263 185.744 130.129 185.244 129.263 T
187.244 129.263 186.744 130.129 185.744 130.129 T
187.244 129.263 187.244 129.263 186.744 130.129 T
0 LC
1 LJ
[] 0 setdash
0.85 0.325 0.098 C
46.8 117.182 LS
47.4993 125.319 L
48.1985 131.628 L
48.8978 136.363 L
49.597 139.781 L
50.2962 142.14 L
50.9955 143.695 L
51.6948 144.703 L
52.394 145.42 L
53.0932 146.102 L
53.7925 147.007 L
54.4917 148.33 L
55.191 150.049 L
55.8902 152.087 L
56.5895 154.37 L
57.2887 156.821 L
57.988 159.366 L
58.6872 161.93 L
59.3865 164.437 L
60.0857 166.812 L
60.785 168.979 L
61.4842 170.889 L
62.1835 172.58 L
62.8827 174.11 L
63.582 175.536 L
64.2812 176.916 L
64.9805 178.307 L
65.6797 179.766 L
66.379 181.352 L
67.0782 183.121 L
67.7775 185.131 L
68.4767 187.401 L
69.1759 189.833 L
69.8752 192.303 L
70.5744 194.687 L
71.2737 196.862 L
71.9729 198.704 L
72.6722 200.091 L
73.3714 200.897 L
74.0707 201.001 L
74.7699 200.279 L
75.4692 198.68 L
76.1684 196.373 L
76.8677 193.565 L
77.5669 190.466 L
78.2662 187.284 L
78.9654 184.226 L
79.6647 181.502 L
80.3639 179.319 L
81.0632 177.886 L
81.7624 177.411 L
82.4617 178.007 L
83.1609 179.524 L
83.8602 181.765 L
84.5594 184.537 L
85.2587 187.643 L
85.9579 190.888 L
86.6572 194.077 L
87.3564 197.013 L
88.0557 199.502 L
88.7549 201.349 L
89.4541 202.438 L
90.1534 202.862 L
90.8526 202.746 L
91.5519 202.214 L
92.2511 201.393 L
92.9504 200.406 L
93.6496 199.379 L
94.3489 198.437 L
95.0481 197.705 L
95.7474 197.307 L
96.4466 197.309 L
97.1459 197.632 L
97.8451 198.18 L
98.5444 198.852 L
99.2436 199.551 L
99.9429 200.177 L
100.642 200.632 L
101.341 200.818 L
102.041 200.636 L
102.74 199.988 L
103.439 198.833 L
104.138 197.261 L
104.838 195.379 L
105.537 193.293 L
106.236 191.112 L
106.935 188.941 L
107.635 186.887 L
108.334 185.058 L
109.033 183.561 L
109.732 182.502 L
110.432 181.919 L
111.131 181.713 L
111.83 181.765 L
112.529 181.956 L
113.229 182.167 L
113.928 182.281 L
114.627 182.179 L
115.326 181.742 L
116.026 180.852 L
116.725 179.391 L
117.424 177.316 L
118.123 174.735 L
118.823 171.768 L
119.522 168.538 L
120.221 165.169 L
120.92 161.781 L
121.62 158.498 L
122.319 155.441 L
123.018 152.734 L
123.717 150.498 L
124.417 148.788 L
125.116 147.535 L
125.815 146.659 L
126.514 146.081 L
127.214 145.718 L
127.913 145.491 L
128.612 145.32 L
129.311 145.123 L
130.011 144.821 L
130.71 144.333 L
131.409 143.62 L
132.108 142.712 L
132.808 141.647 L
133.507 140.46 L
134.206 139.191 L
134.905 137.874 L
135.605 136.547 L
136.304 135.247 L
137.003 134.011 L
137.702 132.876 L
138.402 131.855 L
139.101 130.926 L
139.8 130.065 L
140.499 129.245 L
141.199 128.443 L
141.898 127.632 L
142.597 126.787 L
143.296 125.884 L
143.995 124.897 L
144.695 123.801 L
145.394 122.596 L
146.093 121.316 L
146.792 119.999 L
147.492 118.684 L
148.191 117.406 L
148.89 116.205 L
149.589 115.118 L
150.289 114.182 L
150.988 113.436 L
151.687 112.915 L
152.386 112.627 L
153.086 112.532 L
153.785 112.59 L
154.484 112.759 L
155.183 112.998 L
155.883 113.266 L
156.582 113.521 L
157.281 113.722 L
157.98 113.829 L
158.68 113.799 L
159.379 113.624 L
160.078 113.333 L
160.777 112.957 L
161.477 112.529 L
162.176 112.08 L
162.875 111.643 L
163.574 111.249 L
164.274 110.931 L
164.973 110.721 L
165.672 110.649 L
166.371 110.726 L
167.071 110.938 L
167.77 111.268 L
168.469 111.699 L
169.168 112.215 L
169.868 112.8 L
170.567 113.437 L
171.266 114.11 L
171.965 114.802 L
172.665 115.498 L
173.364 116.186 L
174.063 116.865 L
174.762 117.532 L
175.462 118.185 L
176.161 118.821 L
176.86 119.439 L
177.559 120.035 L
178.259 120.608 L
178.958 121.155 L
179.657 121.674 L
180.356 122.175 L
181.056 122.681 L
181.755 123.215 L
182.454 123.8 L
183.153 124.459 L
183.853 125.215 L
184.552 126.092 L
185.251 127.113 L
185.95 128.3 L
186.65 129.676 L
187.349 131.222 L
188.048 132.88 L
188.747 134.591 L
189.447 136.294 L
190.146 137.932 L
190.845 139.444 L
191.544 140.77 L
192.244 141.851 L
192.943 142.628 L
193.642 143.044 L
194.341 143.108 L
195.041 142.89 L
195.74 142.462 L
196.439 141.897 L
197.138 141.266 L
197.838 140.643 L
198.537 140.098 L
199.236 139.705 L
199.935 139.536 L
200.635 139.66 L
201.334 140.08 L
202.033 140.744 L
202.732 141.598 L
203.432 142.586 L
204.131 143.655 L
204.83 144.749 L
205.529 145.814 L
206.229 146.795 L
206.928 147.639 L
207.627 148.292 L
208.326 148.74 L
209.026 149.002 L
209.725 149.095 L
210.424 149.038 L
211.123 148.85 L
211.823 148.55 L
212.522 148.154 L
213.221 147.683 L
213.92 147.155 L
214.62 146.587 L
215.319 145.995 L
216.018 145.391 L
216.717 144.788 L
217.417 144.198 L
218.116 143.633 L
218.815 143.106 L
219.514 142.628 L
220.214 142.213 L
220.913 141.872 L
221.612 141.616 L
222.311 141.429 L
223.011 141.275 L
223.71 141.118 L
224.409 140.923 L
225.108 140.652 L
225.808 140.271 L
226.507 139.744 L
227.206 139.034 L
227.905 138.105 L
228.605 136.926 L
229.304 135.509 L
230.003 133.9 L
230.702 132.141 L
231.402 130.279 L
232.101 128.357 L
232.8 126.422 L
233.499 124.516 L
234.199 122.685 L
234.898 120.974 L
235.597 119.424 L
236.296 118.041 L
236.995 116.811 L
237.695 115.717 L
238.394 114.743 L
239.093 113.873 L
239.792 113.092 L
240.492 112.383 L
241.191 111.731 L
241.89 111.119 L
242.589 110.532 L
243.289 109.958 L
243.988 109.386 L
244.687 108.806 L
245.386 108.207 L
246.086 107.578 L
246.785 106.911 L
247.484 106.193 L
248.183 105.415 L
248.883 104.566 L
249.582 103.638 L
250.281 102.635 L
250.98 101.57 L
251.68 100.456 L
252.379 99.3048 L
253.078 98.1303 L
253.777 96.9448 L
254.477 95.7611 L
255.176 94.592 L
255.875 93.4502 L
256.574 92.346 L
257.274 91.2677 L
257.973 90.1926 L
258.672 89.0977 L
259.371 87.9602 L
260.071 86.757 L
260.77 85.4653 L
261.469 84.0621 L
262.168 82.5245 L
262.868 80.8297 L
263.567 78.9608 L
264.266 76.9509 L
264.965 74.8569 L
265.665 72.7357 L
266.364 70.6445 L
267.063 68.6402 L
267.762 66.7799 L
268.462 65.1206 L
269.161 63.7194 L
269.86 62.6332 L
270.559 61.9085 L
271.259 61.5127 L
271.958 61.3781 L
272.657 61.4367 L
273.356 61.6205 L
274.056 61.8614 L
274.755 62.0916 L
275.454 62.2431 L
276.153 62.2478 L
276.853 62.0378 L
277.552 61.5574 L
278.251 60.8358 L
278.95 59.9372 L
279.65 58.926 L
280.349 57.8668 L
281.048 56.8239 L
281.747 55.8617 L
282.447 55.0448 L
283.146 54.4376 L
283.845 54.1045 L
284.544 54.0982 L
285.244 54.3973 L
285.943 54.9517 L
286.642 55.7109 L
287.341 56.6248 L
288.041 57.643 L
288.74 58.7153 L
289.439 59.7913 L
290.138 60.8208 L
290.838 61.7535 L
291.537 62.5495 L
292.236 63.2295 L
292.935 63.8362 L
293.635 64.4122 L
294.334 65.0003 L
295.033 65.643 L
295.732 66.3832 L
296.432 67.2634 L
297.131 68.3264 L
297.83 69.6148 L
298.529 71.1575 L
299.229 72.9078 L
299.928 74.7939 L
300.627 76.7439 L
301.326 78.6859 L
302.026 80.548 L
302.725 82.2582 L
303.424 83.7448 L
304.123 84.9357 L
304.823 85.7591 L
305.522 86.1665 L
306.221 86.2273 L
306.92 86.0477 L
307.62 85.7336 L
308.319 85.3913 L
309.018 85.127 L
309.717 85.0466 L
310.417 85.2565 L
311.116 85.8627 L
311.815 86.9713 L
312.514 88.6612 L
313.214 90.8841 L
313.913 93.555 L
314.612 96.5887 L
315.311 99.9002 L
316.011 103.404 L
316.71 107.016 L
317.409 110.65 L
318.108 114.221 L
318.808 117.645 L
319.507 120.823 L
320.206 123.6 L
320.905 125.808 L
321.605 127.277 L
322.304 127.838 L
323.003 127.321 L
323.702 125.556 L
324.402 122.375 L
325.101 117.607 L
325.8 111.084 LE
0.929 0.694 0.125 C
46.8 125.574 LS
47.4993 128.21 L
48.1985 130.776 L
48.8978 133.273 L
49.597 135.704 L
50.2962 138.068 L
50.9955 140.368 L
51.6948 142.605 L
52.394 144.781 L
53.0932 146.897 L
53.7925 148.955 L
54.4917 150.956 L
55.191 152.901 L
55.8902 154.793 L
56.5895 156.632 L
57.2887 158.42 L
57.988 160.158 L
58.6872 161.849 L
59.3865 163.493 L
60.0857 165.092 L
60.785 166.648 L
61.4842 168.161 L
62.1835 169.634 L
62.8827 171.067 L
63.582 172.463 L
64.2812 173.823 L
64.9805 175.148 L
65.6797 176.44 L
66.379 177.7 L
67.0782 178.929 L
67.7775 180.126 L
68.4767 181.291 L
69.1759 182.424 L
69.8752 183.525 L
70.5744 184.593 L
71.2737 185.628 L
71.9729 186.63 L
72.6722 187.599 L
73.3714 188.534 L
74.0707 189.435 L
74.7699 190.303 L
75.4692 191.136 L
76.1684 191.934 L
76.8677 192.698 L
77.5669 193.427 L
78.2662 194.12 L
78.9654 194.778 L
79.6647 195.401 L
80.3639 195.987 L
81.0632 196.537 L
81.7624 197.051 L
82.4617 197.528 L
83.1609 197.969 L
83.8602 198.372 L
84.5594 198.738 L
85.2587 199.066 L
85.9579 199.356 L
86.6572 199.609 L
87.3564 199.823 L
88.0557 199.998 L
88.7549 200.135 L
89.4541 200.232 L
90.1534 200.291 L
90.8526 200.309 L
91.5519 200.288 L
92.2511 200.228 L
92.9504 200.126 L
93.6496 199.985 L
94.3489 199.803 L
95.0481 199.58 L
95.7474 199.315 L
96.4466 199.009 L
97.1459 198.662 L
97.8451 198.273 L
98.5444 197.841 L
99.2436 197.368 L
99.9429 196.851 L
100.642 196.292 L
101.341 195.69 L
102.041 195.045 L
102.74 194.355 L
103.439 193.623 L
104.138 192.846 L
104.838 192.025 L
105.537 191.163 L
106.236 190.26 L
106.935 189.319 L
107.635 188.34 L
108.334 187.325 L
109.033 186.276 L
109.732 185.194 L
110.432 184.081 L
111.131 182.939 L
111.83 181.769 L
112.529 180.572 L
113.229 179.351 L
113.928 178.106 L
114.627 176.839 L
115.326 175.553 L
116.026 174.247 L
116.725 172.925 L
117.424 171.587 L
118.123 170.236 L
118.823 168.872 L
119.522 167.497 L
120.221 166.113 L
120.92 164.721 L
121.62 163.323 L
122.319 161.921 L
123.018 160.516 L
123.717 159.109 L
124.417 157.702 L
125.116 156.297 L
125.815 154.896 L
126.514 153.499 L
127.214 152.109 L
127.913 150.726 L
128.612 149.353 L
129.311 147.991 L
130.011 146.641 L
130.71 145.304 L
131.409 143.981 L
132.108 142.672 L
132.808 141.378 L
133.507 140.1 L
134.206 138.839 L
134.905 137.595 L
135.605 136.369 L
136.304 135.162 L
137.003 133.974 L
137.702 132.807 L
138.402 131.66 L
139.101 130.536 L
139.8 129.434 L
140.499 128.355 L
141.199 127.3 L
141.898 126.27 L
142.597 125.266 L
143.296 124.288 L
143.995 123.337 L
144.695 122.413 L
145.394 121.518 L
146.093 120.652 L
146.792 119.817 L
147.492 119.011 L
148.191 118.238 L
148.89 117.496 L
149.589 116.788 L
150.289 116.113 L
150.988 115.472 L
151.687 114.867 L
152.386 114.298 L
153.086 113.765 L
153.785 113.27 L
154.484 112.813 L
155.183 112.394 L
155.883 112.016 L
156.582 111.677 L
157.281 111.38 L
157.98 111.125 L
158.68 110.912 L
159.379 110.743 L
160.078 110.617 L
160.777 110.537 L
161.477 110.502 L
162.176 110.513 L
162.875 110.571 L
163.574 110.677 L
164.274 110.828 L
164.973 111.024 L
165.672 111.262 L
166.371 111.541 L
167.071 111.86 L
167.77 112.217 L
168.469 112.611 L
169.168 113.04 L
169.868 113.503 L
170.567 113.998 L
171.266 114.524 L
171.965 115.078 L
172.665 115.66 L
173.364 116.269 L
174.063 116.902 L
174.762 117.558 L
175.462 118.235 L
176.161 118.933 L
176.86 119.649 L
177.559 120.382 L
178.259 121.131 L
178.958 121.894 L
179.657 122.669 L
180.356 123.456 L
181.056 124.251 L
181.755 125.055 L
182.454 125.865 L
183.153 126.68 L
183.853 127.499 L
184.552 128.32 L
185.251 129.141 L
185.95 129.961 L
186.65 130.778 L
187.349 131.591 L
188.048 132.399 L
188.747 133.2 L
189.447 133.993 L
190.146 134.775 L
190.845 135.547 L
191.544 136.306 L
192.244 137.051 L
192.943 137.78 L
193.642 138.492 L
194.341 139.186 L
195.041 139.86 L
195.74 140.512 L
196.439 141.142 L
197.138 141.748 L
197.838 142.328 L
198.537 142.88 L
199.236 143.405 L
199.935 143.899 L
200.635 144.362 L
201.334 144.791 L
202.033 145.187 L
202.732 145.547 L
203.432 145.869 L
204.131 146.153 L
204.83 146.397 L
205.529 146.601 L
206.229 146.764 L
206.928 146.889 L
207.627 146.974 L
208.326 147.022 L
209.026 147.031 L
209.725 147.003 L
210.424 146.938 L
211.123 146.837 L
211.823 146.699 L
212.522 146.526 L
213.221 146.319 L
213.92 146.077 L
214.62 145.801 L
215.319 145.491 L
216.018 145.148 L
216.717 144.773 L
217.417 144.366 L
218.116 143.928 L
218.815 143.458 L
219.514 142.958 L
220.214 142.427 L
220.913 141.867 L
221.612 141.278 L
222.311 140.661 L
223.011 140.015 L
223.71 139.342 L
224.409 138.641 L
225.108 137.914 L
225.808 137.161 L
226.507 136.382 L
227.206 135.578 L
227.905 134.749 L
228.605 133.896 L
229.304 133.019 L
230.003 132.119 L
230.702 131.196 L
231.402 130.251 L
232.101 129.284 L
232.8 128.296 L
233.499 127.287 L
234.199 126.258 L
234.898 125.208 L
235.597 124.14 L
236.296 123.053 L
236.995 121.949 L
237.695 120.828 L
238.394 119.692 L
239.093 118.541 L
239.792 117.376 L
240.492 116.199 L
241.191 115.009 L
241.89 113.809 L
242.589 112.599 L
243.289 111.38 L
243.988 110.152 L
244.687 108.918 L
245.386 107.677 L
246.086 106.431 L
246.785 105.181 L
247.484 103.928 L
248.183 102.671 L
248.883 101.414 L
249.582 100.156 L
250.281 98.8978 L
250.98 97.6413 L
251.68 96.3871 L
252.379 95.136 L
253.078 93.8891 L
253.777 92.6472 L
254.477 91.4113 L
255.176 90.1823 L
255.875 88.9613 L
256.574 87.749 L
257.274 86.5465 L
257.973 85.3547 L
258.672 84.1745 L
259.371 83.0069 L
260.071 81.8528 L
260.77 80.7132 L
261.469 79.5889 L
262.168 78.481 L
262.868 77.3903 L
263.567 76.3179 L
264.266 75.2645 L
264.965 74.2313 L
265.665 73.2191 L
266.364 72.2288 L
267.063 71.2615 L
267.762 70.318 L
268.462 69.3992 L
269.161 68.5062 L
269.86 67.64 L
270.559 66.8013 L
271.259 65.9912 L
271.958 65.2107 L
272.657 64.4607 L
273.356 63.7422 L
274.056 63.056 L
274.755 62.4032 L
275.454 61.7848 L
276.153 61.2016 L
276.853 60.6546 L
277.552 60.1448 L
278.251 59.6731 L
278.95 59.2405 L
279.65 58.8479 L
280.349 58.4964 L
281.048 58.1867 L
281.747 57.9199 L
282.447 57.697 L
283.146 57.5189 L
283.845 57.3865 L
284.544 57.3009 L
285.244 57.2629 L
285.943 57.2735 L
286.642 57.3336 L
287.341 57.4443 L
288.041 57.6064 L
288.74 57.821 L
289.439 58.0888 L
290.138 58.4102 L
290.838 58.7847 L
291.537 59.2122 L
292.236 59.6922 L
292.935 60.2246 L
293.635 60.8089 L
294.334 61.445 L
295.033 62.1324 L
295.732 62.871 L
296.432 63.6604 L
297.131 64.5003 L
297.83 65.3905 L
298.529 66.3305 L
299.229 67.3202 L
299.928 68.3592 L
300.627 69.4473 L
301.326 70.584 L
302.026 71.7693 L
302.725 73.0026 L
303.424 74.2838 L
304.123 75.6126 L
304.823 76.9886 L
305.522 78.4115 L
306.221 79.8811 L
306.92 81.3971 L
307.62 82.9591 L
308.319 84.5669 L
309.018 86.2201 L
309.717 87.9185 L
310.417 89.6618 L
311.116 91.4496 L
311.815 93.2817 L
312.514 95.1578 L
313.214 97.0776 L
313.913 99.0408 L
314.612 101.047 L
315.311 103.096 L
316.011 105.188 L
316.71 107.321 L
317.409 109.497 L
318.108 111.714 L
318.808 113.973 L
319.507 116.272 L
320.206 118.612 L
320.905 120.993 L
321.605 123.414 L
322.304 125.874 L
323.003 128.374 L
323.702 130.914 L
324.402 133.492 L
325.101 136.109 L
325.8 138.764 LE
grestore
gsave
1.0 1.0 scale
newpath 0 0 moveto 360 0 lineto 360 252 lineto 0 252 lineto
closepath clip
1 1 1 C
203.785 222.429 315.129 176.423 203.785 176.423 T
203.785 222.429 315.129 222.429 315.129 176.423 T
0.5 W
2 LC
[16 0] 0 setdash
0.15 0.15 0.15 C
203.785 176.423 LS
315.129 176.423 LE
203.785 222.429 LS
315.129 222.429 LE
203.785 176.423 LS
203.785 222.429 LE
315.129 176.423 LS
315.129 222.429 LE
gsave
0 0 0 C
(data) [5 5 3 10] 0 230.017 211.262 9 /Helvetica SRX
grestore

gsave
0 0 0 C
(41 breaks, 40 pieces) [5 5 2 5 3 5 5 5 4 3 2 5 5 2 5 2 5 5 5 10] 0 230.017 196.426 9 /Helvetica SRX
grestore

gsave
0 0 0 C
(11 breaks, 10 pieces) [5 5 2 5 3 5 5 5 4 3 2 5 5 2 5 2 5 5 5 10] 0 230.017 181.091 9 /Helvetica SRX
grestore

0 0.447 0.741 C
217.901 214.762 216.401 213.896 217.401 213.896 T
217.901 214.762 215.901 214.762 216.401 213.896 T
217.901 214.762 216.401 215.628 215.901 214.762 T
217.901 214.762 217.401 215.628 216.401 215.628 T
217.901 214.762 217.901 214.762 217.401 215.628 T
0 LC
1 LJ
[] 0 setdash
0.85 0.325 0.098 C
206.897 199.426 LS
226.905 199.426 LE
0.929 0.694 0.125 C
206.897 184.091 LS
226.905 184.091 LE
grestore
grestore
showpage
cleartomark
%%PageTrailer
%%Trailer
end
%%EOF
