%!PS-Adobe-3.0 EPSF-3.0
%%Title: gl2ps_renderer figure
%%Creator: GL2PS 1.4.0, (C) 1999-2017 C. Geuzaine
%%For: Octave
%%CreationDate: Mon Feb  3 11:34:51 2020
%%LanguageLevel: 3
%%DocumentData: Clean7Bit
%%Pages: 1
%%BoundingBox: 0 0 360 252
%%EndComments
%%BeginProlog
/gl2psdict 64 dict def gl2psdict begin
/tryPS3shading false def % set to false to force subdivision
/rThreshold 0.064 def % red component subdivision threshold
/gThreshold 0.034 def % green component subdivision threshold
/bThreshold 0.1 def % blue component subdivision threshold
/BD { bind def } bind def
/C  { setrgbcolor } BD
/G  { 0.082 mul exch 0.6094 mul add exch 0.3086 mul add neg 1.0 add setgray } BD
/W  { setlinewidth } BD
/LC  { setlinecap } BD
/LJ  { setlinejoin } BD
/FC { findfont exch /SH exch def SH scalefont setfont } BD
/SW { dup stringwidth pop } BD
/S  { FC moveto show } BD
/SBC{ FC moveto SW -2 div 0 rmoveto show } BD
/SBR{ FC moveto SW neg 0 rmoveto show } BD
/SCL{ FC moveto 0 SH -2 div rmoveto show } BD
/SCC{ FC moveto SW -2 div SH -2 div rmoveto show } BD
/SCR{ FC moveto SW neg SH -2 div rmoveto show } BD
/STL{ FC moveto 0 SH neg rmoveto show } BD
/STC{ FC moveto SW -2 div SH neg rmoveto show } BD
/STR{ FC moveto SW neg SH neg rmoveto show } BD
/FCT { FC translate 0 0 } BD
/SR  { gsave FCT moveto rotate show grestore } BD
/SRX  { gsave FCT moveto rotate xshow grestore } BD
/SBCR{ gsave FCT moveto rotate SW -2 div 0 rmoveto show grestore } BD
/SBRR{ gsave FCT moveto rotate SW neg 0 rmoveto show grestore } BD
/SCLR{ gsave FCT moveto rotate 0 SH -2 div rmoveto show grestore} BD
/SCCR{ gsave FCT moveto rotate SW -2 div SH -2 div rmoveto show grestore} BD
/SCRR{ gsave FCT moveto rotate SW neg SH -2 div rmoveto show grestore} BD
/STLR{ gsave FCT moveto rotate 0 SH neg rmoveto show grestore } BD
/STCR{ gsave FCT moveto rotate SW -2 div SH neg rmoveto show grestore } BD
/STRR{ gsave FCT moveto rotate SW neg SH neg rmoveto show grestore } BD
/P  { newpath 0.0 360.0 arc closepath fill } BD
/LS { newpath moveto } BD
/L  { lineto } BD
/LE { lineto stroke } BD
/T  { newpath moveto lineto lineto closepath fill } BD
/STshfill {
      /b1 exch def /g1 exch def /r1 exch def /y1 exch def /x1 exch def
      /b2 exch def /g2 exch def /r2 exch def /y2 exch def /x2 exch def
      /b3 exch def /g3 exch def /r3 exch def /y3 exch def /x3 exch def
      gsave << /ShadingType 4 /ColorSpace [/DeviceRGB]
      /DataSource [ 0 x1 y1 r1 g1 b1 0 x2 y2 r2 g2 b2 0 x3 y3 r3 g3 b3 ] >>
      shfill grestore } BD
/Tm { 3 -1 roll 8 -1 roll 13 -1 roll add add 3 div
      3 -1 roll 7 -1 roll 11 -1 roll add add 3 div
      3 -1 roll 6 -1 roll 9 -1 roll add add 3 div C T } BD
/STsplit {
      4 index 15 index add 0.5 mul
      4 index 15 index add 0.5 mul
      4 index 15 index add 0.5 mul
      4 index 15 index add 0.5 mul
      4 index 15 index add 0.5 mul
      5 copy 5 copy 25 15 roll
      9 index 30 index add 0.5 mul
      9 index 30 index add 0.5 mul
      9 index 30 index add 0.5 mul
      9 index 30 index add 0.5 mul
      9 index 30 index add 0.5 mul
      5 copy 5 copy 35 5 roll 25 5 roll 15 5 roll
      4 index 10 index add 0.5 mul
      4 index 10 index add 0.5 mul
      4 index 10 index add 0.5 mul
      4 index 10 index add 0.5 mul
      4 index 10 index add 0.5 mul
      5 copy 5 copy 40 5 roll 25 5 roll 15 5 roll 25 5 roll
      STnoshfill STnoshfill STnoshfill STnoshfill } BD
/STnoshfill {
      2 index 8 index sub abs rThreshold gt
      { STsplit }
      { 1 index 7 index sub abs gThreshold gt
        { STsplit }
        { dup 6 index sub abs bThreshold gt
          { STsplit }
          { 2 index 13 index sub abs rThreshold gt
            { STsplit }
            { 1 index 12 index sub abs gThreshold gt
              { STsplit }
              { dup 11 index sub abs bThreshold gt
                { STsplit }
                { 7 index 13 index sub abs rThreshold gt
                  { STsplit }
                  { 6 index 12 index sub abs gThreshold gt
                    { STsplit }
                    { 5 index 11 index sub abs bThreshold gt
                      { STsplit }
                      { Tm }
                      ifelse }
                    ifelse }
                  ifelse }
                ifelse }
              ifelse }
            ifelse }
          ifelse }
        ifelse }
      ifelse } BD
tryPS3shading
{ /shfill where
  { /ST { STshfill } BD }
  { /ST { STnoshfill } BD }
  ifelse }
{ /ST { STnoshfill } BD }
ifelse
end
%%EndProlog
%%BeginSetup
/DeviceRGB setcolorspace
gl2psdict begin
%%EndSetup
%%Page: 1 1
%%BeginPageSetup
%%EndPageSetup
mark
gsave
1.0 1.0 scale
1 1 1 C
newpath 0 0 moveto 360 0 lineto 360 252 lineto 0 252 lineto
closepath fill
gsave
1.0 1.0 scale
1 1 1 C
newpath 0 0 moveto 360 0 lineto 360 252 lineto 0 252 lineto
closepath fill
newpath 0 0 moveto 360 0 lineto 360 252 lineto 0 252 lineto
closepath clip
1 1 1 C
83.61 233.1 288.99 27.72 83.61 27.72 T
83.61 233.1 288.99 233.1 288.99 27.72 T
0.5 W
0.15 0.15 0.15 C
83.61 27.72 LS
83.61 30.5152 LE
83.61 233.1 LS
83.61 230.305 LE
124.686 27.72 LS
124.686 30.5152 LE
124.686 233.1 LS
124.686 230.305 LE
165.762 27.72 LS
165.762 30.5152 LE
165.762 233.1 LS
165.762 230.305 LE
206.838 27.72 LS
206.838 30.5152 LE
206.838 233.1 LS
206.838 230.305 LE
247.914 27.72 LS
247.914 30.5152 LE
247.914 233.1 LS
247.914 230.305 LE
288.99 27.72 LS
288.99 30.5152 LE
288.99 233.1 LS
288.99 230.305 LE
gsave
0.14902 0.14902 0.14902 C
(0) [10] 0 80.61 12.2061 10 /Helvetica SRX
grestore

gsave
0.14902 0.14902 0.14902 C
(0.2) [6 3 10] 0 117.186 12.2061 10 /Helvetica SRX
grestore

gsave
0.14902 0.14902 0.14902 C
(0.4) [6 3 10] 0 158.262 12.2061 10 /Helvetica SRX
grestore

gsave
0.14902 0.14902 0.14902 C
(0.6) [6 3 10] 0 199.338 12.2061 10 /Helvetica SRX
grestore

gsave
0.14902 0.14902 0.14902 C
(0.8) [6 3 10] 0 240.414 12.2061 10 /Helvetica SRX
grestore

gsave
0.14902 0.14902 0.14902 C
(1) [10] 0 285.99 12.2061 10 /Helvetica SRX
grestore

83.61 27.72 LS
86.4052 27.72 LE
288.99 27.72 LS
286.195 27.72 LE
83.61 68.796 LS
86.4052 68.796 LE
288.99 68.796 LS
286.195 68.796 LE
83.61 109.872 LS
86.4052 109.872 LE
288.99 109.872 LS
286.195 109.872 LE
83.61 150.948 LS
86.4052 150.948 LE
288.99 150.948 LS
286.195 150.948 LE
83.61 192.024 LS
86.4052 192.024 LE
288.99 192.024 LS
286.195 192.024 LE
83.61 233.1 LS
86.4052 233.1 LE
288.99 233.1 LS
286.195 233.1 LE
gsave
0.14902 0.14902 0.14902 C
(0) [10] 0 72.6007 23.72 10 /Helvetica SRX
grestore

gsave
0.14902 0.14902 0.14902 C
(0.2) [6 3 10] 0 63.6007 64.796 10 /Helvetica SRX
grestore

gsave
0.14902 0.14902 0.14902 C
(0.4) [6 3 10] 0 63.6007 105.872 10 /Helvetica SRX
grestore

gsave
0.14902 0.14902 0.14902 C
(0.6) [6 3 10] 0 63.6007 146.948 10 /Helvetica SRX
grestore

gsave
0.14902 0.14902 0.14902 C
(0.8) [6 3 10] 0 63.6007 188.024 10 /Helvetica SRX
grestore

gsave
0.14902 0.14902 0.14902 C
(1) [10] 0 72.6007 229.1 10 /Helvetica SRX
grestore

2 LC
[16 0] 0 setdash
83.61 27.72 LS
288.99 27.72 LE
83.61 233.1 LS
288.99 233.1 LE
83.61 27.72 LS
83.61 233.1 LE
288.99 27.72 LS
288.99 233.1 LE
0 LC
1 LJ
[] 0 setdash
0 0 1 C
112.063 172.201 LS
210.258 217.456 L
84.9316 176.634 L
112.063 172.201 L
100.208 50.5064 L
84.9316 176.634 L
112.063 172.201 L
160.281 105.563 L
100.208 50.5064 L
112.063 172.201 LE
197.446 131.698 LS
112.063 172.201 L
160.281 105.563 L
197.446 131.698 L
112.063 172.201 L
210.258 217.456 L
197.446 131.698 LE
186.871 59.9969 LS
160.281 105.563 L
100.208 50.5064 L
186.871 59.9969 L
178.702 36.1192 L
100.208 50.5064 L
186.871 59.9969 L
197.446 131.698 L
160.281 105.563 L
186.871 59.9969 L
178.702 36.1192 L
268.102 76.6029 L
186.871 59.9969 L
197.446 131.698 L
268.102 76.6029 L
186.871 59.9969 LE
261.584 120.556 LS
197.446 131.698 L
268.102 76.6029 L
261.584 120.556 L
197.446 131.698 L
210.258 217.456 L
261.584 120.556 LE
1 0 0 C
289.195 102.191 LS
223.669 92.4736 LE
289.195 197.225 LS
237.07 169.614 LE
223.669 92.4736 LS
237.07 169.614 LE
223.669 92.4736 LS
222.779 91.3313 LE
237.07 169.614 LS
168.027 179.929 LE
136.559 27.5146 LS
142.83 61.7278 L
235.297 30.0934 LE
142.83 61.7278 LS
142.51 64.6512 LE
235.297 30.0934 LS
236.465 27.5146 LE
235.297 30.0934 LS
222.779 91.3313 L
195.2 95.3987 LE
83.4046 112.46 LS
88.4744 113.074 LE
143.427 233.305 LS
168.027 179.929 LE
108.119 233.305 LS
88.4744 113.074 LE
168.027 179.929 LS
155.028 152.526 LE
88.4744 113.074 LS
99.0775 112.041 LE
142.51 64.6512 LS
195.2 95.3987 LE
142.51 64.6512 LS
99.0775 112.041 LE
195.2 95.3987 LS
155.028 152.526 L
99.0775 112.041 LE
3 W
0 1 0 C
237.07 114.772 LS
235.347 114.799 L
233.626 114.88 L
231.908 115.015 L
230.196 115.204 L
228.49 115.447 L
226.793 115.743 L
225.106 116.093 L
223.431 116.495 L
221.769 116.949 L
220.122 117.456 L
218.492 118.014 L
216.881 118.623 L
215.289 119.282 L
213.719 119.991 L
212.172 120.749 L
210.649 121.556 L
209.152 122.409 L
207.683 123.309 L
206.243 124.255 L
204.834 125.246 L
203.456 126.28 L
202.112 127.358 L
200.801 128.476 L
199.527 129.636 L
198.29 130.835 L
197.091 132.072 L
195.931 133.346 L
194.813 134.656 L
193.735 136.001 L
192.701 137.379 L
191.71 138.788 L
190.764 140.228 L
189.864 141.697 L
189.011 143.194 L
188.204 144.716 L
187.446 146.264 L
186.737 147.834 L
186.078 149.426 L
185.469 151.037 L
184.911 152.667 L
184.405 154.314 L
183.95 155.976 L
183.548 157.651 L
183.198 159.338 L
182.902 161.035 L
182.659 162.741 L
182.47 164.453 L
182.335 166.171 L
182.254 167.892 L
182.227 169.614 L
182.254 171.337 L
182.335 173.058 L
182.47 174.776 L
182.659 176.488 L
182.902 178.194 L
183.198 179.891 L
183.548 181.578 L
183.95 183.253 L
184.405 184.915 L
184.911 186.562 L
185.469 188.192 L
186.078 189.803 L
186.737 191.395 L
187.446 192.965 L
188.204 194.512 L
189.011 196.035 L
189.864 197.532 L
190.764 199.001 L
191.71 200.441 L
192.701 201.85 L
193.735 203.228 L
194.813 204.572 L
195.931 205.883 L
197.091 207.157 L
198.29 208.394 L
199.527 209.593 L
200.801 210.752 L
202.112 211.871 L
203.456 212.949 L
204.834 213.983 L
206.243 214.974 L
207.683 215.92 L
209.152 216.82 L
210.649 217.673 L
212.172 218.48 L
213.719 219.238 L
215.289 219.946 L
216.881 220.606 L
218.492 221.215 L
220.122 221.773 L
221.769 222.279 L
223.431 222.734 L
225.106 223.136 L
226.793 223.486 L
228.49 223.782 L
230.196 224.025 L
231.908 224.214 L
233.626 224.349 L
235.347 224.43 L
237.07 224.457 L
238.792 224.43 L
240.513 224.349 L
242.231 224.214 L
243.943 224.025 L
245.649 223.782 L
247.346 223.486 L
249.033 223.136 L
250.708 222.734 L
252.37 222.279 L
254.017 221.773 L
255.647 221.215 L
257.258 220.606 L
258.85 219.946 L
260.42 219.238 L
261.968 218.48 L
263.49 217.673 L
264.987 216.82 L
266.456 215.92 L
267.896 214.974 L
269.305 213.983 L
270.683 212.949 L
272.028 211.871 L
273.338 210.752 L
274.612 209.593 L
275.849 208.394 L
277.048 207.157 L
278.208 205.883 L
279.326 204.572 L
280.404 203.228 L
281.438 201.85 L
282.429 200.441 L
283.375 199.001 L
284.275 197.532 L
285.128 196.035 L
285.935 194.512 L
286.693 192.965 L
287.402 191.395 L
288.061 189.803 L
288.67 188.192 L
289.195 186.657 LE
289.195 152.572 LS
288.67 151.037 L
288.061 149.426 L
287.402 147.834 L
286.693 146.264 L
285.935 144.716 L
285.128 143.194 L
284.275 141.697 L
283.375 140.228 L
282.429 138.788 L
281.438 137.379 L
280.404 136.001 L
279.326 134.656 L
278.208 133.346 L
277.048 132.072 L
275.849 130.835 L
274.612 129.636 L
273.338 128.476 L
272.028 127.358 L
270.683 126.28 L
269.305 125.246 L
267.896 124.255 L
266.456 123.309 L
264.987 122.409 L
263.49 121.556 L
261.968 120.749 L
260.42 119.991 L
258.85 119.282 L
257.258 118.623 L
255.647 118.014 L
254.017 117.456 L
252.37 116.949 L
250.708 116.495 L
249.033 116.093 L
247.346 115.743 L
245.649 115.447 L
243.943 115.204 L
242.231 115.015 L
240.513 114.88 L
238.792 114.799 L
237.07 114.772 LE
grestore
grestore
showpage
cleartomark
%%PageTrailer
%%Trailer
end
%%EOF
